EESchema Schematic File Version 4
EELAYER 30 0
EELAYER END
$Descr A4 11693 8268
encoding utf-8
Sheet 1 1
Title "step up dcdc symetric output"
Date "2021-11-02"
Rev "0.0.0"
Comp ""
Comment1 "input = 5v outputs = +10volts and -10volts"
Comment2 "https://gitlab.com/goblinrieur/sym_stepup_dcdc"
Comment3 "goblinrieur@gmail.com"
Comment4 ""
$EndDescr
$Comp
L PERSO:MAX680 U1
U 1 1 6181A0F7
P 4900 2400
F 0 "U1" H 4900 2525 50  0000 C CNN
F 1 "MAX680" H 4900 2434 50  0000 C CNN
F 2 "Package_SO:SOIC-8_3.9x4.9mm_P1.27mm" H 4900 2300 50  0001 C CNN
F 3 "https://datasheetspdf.com/pdf/443942/Maxim/MAX680/1" H 4900 2300 50  0001 C CNN
	1    4900 2400
	1    0    0    -1  
$EndComp
$Comp
L Device:C_Polarized_Small_US C1
U 1 1 6181BBC2
P 3300 2550
F 0 "C1" H 3391 2596 50  0000 L CNN
F 1 "22µ-50v" H 3391 2505 50  0000 L CNN
F 2 "Capacitor_SMD:CP_Elec_5x5.3" H 3300 2550 50  0001 C CNN
F 3 "~" H 3300 2550 50  0001 C CNN
	1    3300 2550
	1    0    0    -1  
$EndComp
$Comp
L Device:C_Polarized_Small_US C2
U 1 1 6181BCA6
P 3300 2950
F 0 "C2" H 3391 2996 50  0000 L CNN
F 1 "22µ-50v" H 3391 2905 50  0000 L CNN
F 2 "Capacitor_SMD:CP_Elec_5x5.3" H 3300 2950 50  0001 C CNN
F 3 "~" H 3300 2950 50  0001 C CNN
	1    3300 2950
	1    0    0    -1  
$EndComp
Wire Wire Line
	4500 2700 3300 2700
Wire Wire Line
	3300 2700 3300 2650
Wire Wire Line
	3300 2450 3300 2400
Wire Wire Line
	3300 2400 3850 2400
Wire Wire Line
	3850 2400 3850 2600
Wire Wire Line
	3850 2600 4500 2600
Wire Wire Line
	4500 2800 3300 2800
Wire Wire Line
	3300 2800 3300 2850
Wire Wire Line
	3300 3050 3300 3100
Wire Wire Line
	3300 3100 3850 3100
Wire Wire Line
	3850 3100 3850 2900
Wire Wire Line
	3850 2900 4500 2900
$Comp
L power:+5V #PWR01
U 1 1 6181DE66
P 4200 2300
F 0 "#PWR01" H 4200 2150 50  0001 C CNN
F 1 "+5V" H 4215 2473 50  0000 C CNN
F 2 "" H 4200 2300 50  0001 C CNN
F 3 "" H 4200 2300 50  0001 C CNN
	1    4200 2300
	1    0    0    -1  
$EndComp
$Comp
L power:GND #PWR02
U 1 1 6181E303
P 4200 3250
F 0 "#PWR02" H 4200 3000 50  0001 C CNN
F 1 "GND" H 4205 3077 50  0000 C CNN
F 2 "" H 4200 3250 50  0001 C CNN
F 3 "" H 4200 3250 50  0001 C CNN
	1    4200 3250
	1    0    0    -1  
$EndComp
Wire Wire Line
	4200 2300 4200 2500
Wire Wire Line
	4200 2500 4500 2500
Wire Wire Line
	4200 3250 4200 3000
Wire Wire Line
	4200 3000 4500 3000
$Comp
L PERSO:MAX680 U2
U 1 1 6181EBAA
P 7850 2400
F 0 "U2" H 7850 2525 50  0000 C CNN
F 1 "MAX680" H 7850 2434 50  0000 C CNN
F 2 "Package_SO:SOIC-8_3.9x4.9mm_P1.27mm" H 7850 2300 50  0001 C CNN
F 3 "https://datasheetspdf.com/pdf/443942/Maxim/MAX680/1" H 7850 2300 50  0001 C CNN
	1    7850 2400
	1    0    0    -1  
$EndComp
$Comp
L Device:C_Polarized_Small_US C3
U 1 1 6181EC34
P 6250 2550
F 0 "C3" H 6341 2596 50  0000 L CNN
F 1 "22µ-50v" H 6341 2505 50  0000 L CNN
F 2 "Capacitor_SMD:CP_Elec_5x5.3" H 6250 2550 50  0001 C CNN
F 3 "~" H 6250 2550 50  0001 C CNN
	1    6250 2550
	1    0    0    -1  
$EndComp
$Comp
L Device:C_Polarized_Small_US C4
U 1 1 6181EC3E
P 6250 2950
F 0 "C4" H 6341 2996 50  0000 L CNN
F 1 "22µ-50v" H 6341 2905 50  0000 L CNN
F 2 "Capacitor_SMD:CP_Elec_5x5.3" H 6250 2950 50  0001 C CNN
F 3 "~" H 6250 2950 50  0001 C CNN
	1    6250 2950
	1    0    0    -1  
$EndComp
Wire Wire Line
	7450 2700 6250 2700
Wire Wire Line
	6250 2700 6250 2650
Wire Wire Line
	6250 2450 6250 2400
Wire Wire Line
	6250 2400 6800 2400
Wire Wire Line
	6800 2400 6800 2600
Wire Wire Line
	6800 2600 7450 2600
Wire Wire Line
	7450 2800 6250 2800
Wire Wire Line
	6250 2800 6250 2850
Wire Wire Line
	6250 3050 6250 3100
Wire Wire Line
	6250 3100 6800 3100
Wire Wire Line
	6800 3100 6800 2900
Wire Wire Line
	6800 2900 7450 2900
$Comp
L power:+5V #PWR03
U 1 1 6181EC54
P 7150 2300
F 0 "#PWR03" H 7150 2150 50  0001 C CNN
F 1 "+5V" H 7165 2473 50  0000 C CNN
F 2 "" H 7150 2300 50  0001 C CNN
F 3 "" H 7150 2300 50  0001 C CNN
	1    7150 2300
	1    0    0    -1  
$EndComp
$Comp
L power:GND #PWR04
U 1 1 6181EC5E
P 7150 3250
F 0 "#PWR04" H 7150 3000 50  0001 C CNN
F 1 "GND" H 7155 3077 50  0000 C CNN
F 2 "" H 7150 3250 50  0001 C CNN
F 3 "" H 7150 3250 50  0001 C CNN
	1    7150 3250
	1    0    0    -1  
$EndComp
Wire Wire Line
	7150 2300 7150 2500
Wire Wire Line
	7150 3250 7150 3000
Wire Wire Line
	7150 3000 7450 3000
Text GLabel 5500 2700 2    50   Output ~ 0
8_U1U2
Text GLabel 5500 2600 2    50   Output ~ 0
4_U1U2
Wire Wire Line
	5300 2600 5500 2600
Wire Wire Line
	5500 2700 5300 2700
Text GLabel 8450 2700 2    50   Input ~ 0
8_U1U2
Text GLabel 8450 2600 2    50   Input ~ 0
4_U1U2
Wire Wire Line
	8450 2700 8350 2700
$Comp
L Device:C_Polarized_Small_US C5
U 1 1 61828153
P 8350 2250
F 0 "C5" H 8441 2296 50  0000 L CNN
F 1 "22µ-50v" H 8441 2205 50  0000 L CNN
F 2 "Capacitor_SMD:CP_Elec_5x5.3" H 8350 2250 50  0001 C CNN
F 3 "~" H 8350 2250 50  0001 C CNN
	1    8350 2250
	1    0    0    -1  
$EndComp
Wire Wire Line
	7150 2500 7450 2500
Wire Wire Line
	8250 2600 8350 2600
$Comp
L power:GND #PWR05
U 1 1 6182B71E
P 9000 2150
F 0 "#PWR05" H 9000 1900 50  0001 C CNN
F 1 "GND" H 9005 1977 50  0000 C CNN
F 2 "" H 9000 2150 50  0001 C CNN
F 3 "" H 9000 2150 50  0001 C CNN
	1    9000 2150
	1    0    0    -1  
$EndComp
Wire Wire Line
	9000 2150 9000 2100
Wire Wire Line
	9000 2100 8350 2100
Wire Wire Line
	8350 2100 8350 2150
Wire Wire Line
	8350 2350 8350 2600
Connection ~ 8350 2600
Wire Wire Line
	8350 2600 8450 2600
Text Notes 7500 2050 0    50   ~ 0
be careful V- is negative of capacitor !!\nthis is normal as the gnd is an higher \nvoltage than V-
$Comp
L Device:C_Polarized_Small_US C6
U 1 1 618307D3
P 8350 3050
F 0 "C6" H 8441 3096 50  0000 L CNN
F 1 "22µ-50v" H 8441 3005 50  0000 L CNN
F 2 "Capacitor_SMD:CP_Elec_5x5.3" H 8350 3050 50  0001 C CNN
F 3 "~" H 8350 3050 50  0001 C CNN
	1    8350 3050
	1    0    0    -1  
$EndComp
Wire Wire Line
	8350 2700 8350 2950
Connection ~ 8350 2700
Wire Wire Line
	8350 2700 8250 2700
$Comp
L power:+5V #PWR06
U 1 1 61831125
P 9000 3150
F 0 "#PWR06" H 9000 3000 50  0001 C CNN
F 1 "+5V" H 9015 3323 50  0000 C CNN
F 2 "" H 9000 3150 50  0001 C CNN
F 3 "" H 9000 3150 50  0001 C CNN
	1    9000 3150
	1    0    0    -1  
$EndComp
Wire Wire Line
	9000 3150 9000 3200
Wire Wire Line
	9000 3200 8350 3200
Wire Wire Line
	8350 3200 8350 3150
$Comp
L Connector:Conn_01x04_Female J1
U 1 1 61836C05
P 5500 5500
F 0 "J1" H 5528 5476 50  0000 L CNN
F 1 "in/out" H 5528 5385 50  0000 L CNN
F 2 "Connector_PinSocket_2.54mm:PinSocket_1x04_P2.54mm_Horizontal" H 5500 5500 50  0001 C CNN
F 3 "~" H 5500 5500 50  0001 C CNN
	1    5500 5500
	1    0    0    -1  
$EndComp
$Comp
L power:GND #PWR07
U 1 1 6183E689
P 3150 6700
F 0 "#PWR07" H 3150 6450 50  0001 C CNN
F 1 "GND" H 3155 6527 50  0000 C CNN
F 2 "" H 3150 6700 50  0001 C CNN
F 3 "" H 3150 6700 50  0001 C CNN
	1    3150 6700
	1    0    0    -1  
$EndComp
Wire Wire Line
	3150 6000 3150 6250
Wire Wire Line
	3250 6000 3250 6250
Wire Wire Line
	3250 6250 3150 6250
Connection ~ 3150 6250
Wire Wire Line
	3150 6250 3150 6500
$Comp
L Connector:USB_A J2
U 1 1 618434D5
P 3250 5600
F 0 "J2" H 3307 6067 50  0000 C CNN
F 1 "USB_A" H 3307 5976 50  0000 C CNN
F 2 "Connector_USB:USB_A_Stewart_SS-52100-001_Horizontal" H 3400 5550 50  0001 C CNN
F 3 " ~" H 3400 5550 50  0001 C CNN
	1    3250 5600
	1    0    0    -1  
$EndComp
NoConn ~ 3550 5700
NoConn ~ 3550 5600
$Comp
L power:+5V #PWR08
U 1 1 61847ACC
P 4500 4800
F 0 "#PWR08" H 4500 4650 50  0001 C CNN
F 1 "+5V" H 4515 4973 50  0000 C CNN
F 2 "" H 4500 4800 50  0001 C CNN
F 3 "" H 4500 4800 50  0001 C CNN
	1    4500 4800
	1    0    0    -1  
$EndComp
Text GLabel 5050 5400 0    50   Input ~ 0
8_U1U2
Text GLabel 5050 5700 0    50   Input ~ 0
4_U1U2
$Comp
L Switch:SW_SPDT SW1
U 1 1 6184F472
P 4050 5400
F 0 "SW1" H 4050 5685 50  0000 C CNN
F 1 "ON-OFF" H 4050 5594 50  0000 C CNN
F 2 "Connector_PinHeader_2.54mm:PinHeader_1x03_P2.54mm_Horizontal" H 4050 5400 50  0001 C CNN
F 3 "~" H 4050 5400 50  0001 C CNN
	1    4050 5400
	1    0    0    -1  
$EndComp
NoConn ~ 4250 5300
Wire Wire Line
	5300 5500 4500 5500
Wire Wire Line
	3850 5600 3850 6250
Wire Wire Line
	3850 6250 3250 6250
Wire Wire Line
	3850 5600 5300 5600
Connection ~ 3250 6250
Wire Wire Line
	5300 5400 5050 5400
Wire Wire Line
	5300 5700 5050 5700
Wire Wire Line
	3550 5400 3700 5400
Wire Wire Line
	4500 4800 4500 5100
Connection ~ 4500 5500
Wire Wire Line
	4500 5500 4250 5500
Text Notes 5850 5700 0    50   ~ 0
+5v & ground can be reused \nfrom that connector too\n+10volt\n+5v\ngnd\n-10volts
$Comp
L power:PWR_FLAG #FLG0101
U 1 1 618620C7
P 4900 4800
F 0 "#FLG0101" H 4900 4875 50  0001 C CNN
F 1 "PWR_FLAG" H 4900 4973 50  0000 C CNN
F 2 "" H 4900 4800 50  0001 C CNN
F 3 "~" H 4900 4800 50  0001 C CNN
	1    4900 4800
	1    0    0    -1  
$EndComp
Wire Wire Line
	4900 5100 4500 5100
Wire Wire Line
	4900 4800 4900 5100
Connection ~ 4500 5100
Wire Wire Line
	4500 5100 4500 5500
$Comp
L power:PWR_FLAG #FLG0102
U 1 1 6186349C
P 3600 6700
F 0 "#FLG0102" H 3600 6775 50  0001 C CNN
F 1 "PWR_FLAG" H 3600 6873 50  0000 C CNN
F 2 "" H 3600 6700 50  0001 C CNN
F 3 "~" H 3600 6700 50  0001 C CNN
	1    3600 6700
	-1   0    0    1   
$EndComp
Wire Wire Line
	3600 6700 3600 6500
Wire Wire Line
	3600 6500 3150 6500
Connection ~ 3150 6500
Wire Wire Line
	3150 6500 3150 6700
$Comp
L power:PWR_FLAG #FLG0103
U 1 1 61865661
P 3700 4800
F 0 "#FLG0103" H 3700 4875 50  0001 C CNN
F 1 "PWR_FLAG" H 3700 4973 50  0000 C CNN
F 2 "" H 3700 4800 50  0001 C CNN
F 3 "~" H 3700 4800 50  0001 C CNN
	1    3700 4800
	1    0    0    -1  
$EndComp
Wire Wire Line
	3700 4800 3700 5400
Connection ~ 3700 5400
Wire Wire Line
	3700 5400 3850 5400
$EndSCHEMATC
