(kicad_pcb (version 20171130) (host pcbnew 5.99.0+really5.1.10+dfsg1-1+b1)

  (general
    (thickness 1.6)
    (drawings 21)
    (tracks 129)
    (zones 0)
    (modules 13)
    (nets 14)
  )

  (page A4)
  (title_block
    (title "5V to +/-10volts symetric DCDC converter")
    (date 2021-11-02)
    (rev 0.0.0)
    (comment 1 https://gitlab.com/goblinrieur/sym_stepup_dcdc)
    (comment 2 goblinrieur@gmail.com)
  )

  (layers
    (0 F.Cu signal)
    (31 B.Cu signal)
    (32 B.Adhes user)
    (33 F.Adhes user)
    (34 B.Paste user)
    (35 F.Paste user)
    (36 B.SilkS user)
    (37 F.SilkS user)
    (38 B.Mask user)
    (39 F.Mask user)
    (40 Dwgs.User user)
    (41 Cmts.User user)
    (42 Eco1.User user)
    (43 Eco2.User user)
    (44 Edge.Cuts user)
    (45 Margin user)
    (46 B.CrtYd user)
    (47 F.CrtYd user)
    (48 B.Fab user)
    (49 F.Fab user)
  )

  (setup
    (last_trace_width 0.75)
    (user_trace_width 0.75)
    (user_trace_width 1)
    (trace_clearance 0.2)
    (zone_clearance 0.508)
    (zone_45_only no)
    (trace_min 0.2)
    (via_size 0.8)
    (via_drill 0.4)
    (via_min_size 0.4)
    (via_min_drill 0.3)
    (uvia_size 0.3)
    (uvia_drill 0.1)
    (uvias_allowed no)
    (uvia_min_size 0.2)
    (uvia_min_drill 0.1)
    (edge_width 0.05)
    (segment_width 0.2)
    (pcb_text_width 0.3)
    (pcb_text_size 1.5 1.5)
    (mod_edge_width 0.12)
    (mod_text_size 1 1)
    (mod_text_width 0.15)
    (pad_size 1.524 1.524)
    (pad_drill 0.762)
    (pad_to_mask_clearance 0)
    (aux_axis_origin 127.635 54.61)
    (grid_origin 127.635 54.61)
    (visible_elements FFFFEF7F)
    (pcbplotparams
      (layerselection 0x010fc_ffffffff)
      (usegerberextensions false)
      (usegerberattributes true)
      (usegerberadvancedattributes true)
      (creategerberjobfile true)
      (excludeedgelayer true)
      (linewidth 0.100000)
      (plotframeref false)
      (viasonmask false)
      (mode 1)
      (useauxorigin false)
      (hpglpennumber 1)
      (hpglpenspeed 20)
      (hpglpendiameter 15.000000)
      (psnegative false)
      (psa4output false)
      (plotreference true)
      (plotvalue true)
      (plotinvisibletext false)
      (padsonsilk false)
      (subtractmaskfromsilk false)
      (outputformat 1)
      (mirror false)
      (drillshape 0)
      (scaleselection 1)
      (outputdirectory "../build/"))
  )

  (net 0 "")
  (net 1 "Net-(C1-Pad1)")
  (net 2 "Net-(C1-Pad2)")
  (net 3 "Net-(C2-Pad2)")
  (net 4 "Net-(C2-Pad1)")
  (net 5 "Net-(C3-Pad1)")
  (net 6 "Net-(C3-Pad2)")
  (net 7 "Net-(C4-Pad2)")
  (net 8 "Net-(C4-Pad1)")
  (net 9 GND)
  (net 10 4_U1U2)
  (net 11 +5V)
  (net 12 8_U1U2)
  (net 13 "Net-(J2-Pad1)")

  (net_class Default "This is the default net class."
    (clearance 0.2)
    (trace_width 0.25)
    (via_dia 0.8)
    (via_drill 0.4)
    (uvia_dia 0.3)
    (uvia_drill 0.1)
    (add_net +5V)
    (add_net 4_U1U2)
    (add_net 8_U1U2)
    (add_net GND)
    (add_net "Net-(C1-Pad1)")
    (add_net "Net-(C1-Pad2)")
    (add_net "Net-(C2-Pad1)")
    (add_net "Net-(C2-Pad2)")
    (add_net "Net-(C3-Pad1)")
    (add_net "Net-(C3-Pad2)")
    (add_net "Net-(C4-Pad1)")
    (add_net "Net-(C4-Pad2)")
    (add_net "Net-(J2-Pad1)")
  )

  (module Connectors:1X01_2MM (layer F.Cu) (tedit 200000) (tstamp 61822AB2)
    (at 130.81 85.725)
    (descr "PLATED THROUGH HOLE - 2MM")
    (tags "PLATED THROUGH HOLE - 2MM")
    (attr virtual)
    (fp_text reference >NAME (at 0 -2.286) (layer Eco2.User) hide
      (effects (font (size 0.6096 0.6096) (thickness 0.127)))
    )
    (fp_text value >VALUE (at 0 2.413) (layer Eco2.User) hide
      (effects (font (size 0.6096 0.6096) (thickness 0.127)))
    )
    (pad 1 thru_hole circle (at 0 0) (size 3.302 3.302) (drill 1.99898) (layers *.Cu *.Mask)
      (solder_mask_margin 0.1016))
  )

  (module Connectors:1X01_2MM (layer F.Cu) (tedit 200000) (tstamp 61822AA3)
    (at 154.94 57.785)
    (descr "PLATED THROUGH HOLE - 2MM")
    (tags "PLATED THROUGH HOLE - 2MM")
    (attr virtual)
    (fp_text reference >NAME (at 0 -2.286) (layer Eco2.User) hide
      (effects (font (size 0.6096 0.6096) (thickness 0.127)))
    )
    (fp_text value >VALUE (at 0 2.413) (layer Eco2.User) hide
      (effects (font (size 0.6096 0.6096) (thickness 0.127)))
    )
    (pad 1 thru_hole circle (at 0 0) (size 3.302 3.302) (drill 1.99898) (layers *.Cu *.Mask)
      (solder_mask_margin 0.1016))
  )

  (module Capacitor_SMD:CP_Elec_5x5.3 (layer F.Cu) (tedit 5BCA39CF) (tstamp 618202DD)
    (at 153.67 82.21 90)
    (descr "SMD capacitor, aluminum electrolytic, Nichicon, 5.0x5.3mm")
    (tags "capacitor electrolytic")
    (path /6181BBC2)
    (attr smd)
    (fp_text reference C1 (at -4.15 1.905 180) (layer F.SilkS)
      (effects (font (size 1 1) (thickness 0.15)))
    )
    (fp_text value 22µ-50v (at 0 3.7 90) (layer F.Fab)
      (effects (font (size 1 1) (thickness 0.15)))
    )
    (fp_line (start -3.95 1.05) (end -2.9 1.05) (layer F.CrtYd) (width 0.05))
    (fp_line (start -3.95 -1.05) (end -3.95 1.05) (layer F.CrtYd) (width 0.05))
    (fp_line (start -2.9 -1.05) (end -3.95 -1.05) (layer F.CrtYd) (width 0.05))
    (fp_line (start -2.9 1.05) (end -2.9 1.75) (layer F.CrtYd) (width 0.05))
    (fp_line (start -2.9 -1.75) (end -2.9 -1.05) (layer F.CrtYd) (width 0.05))
    (fp_line (start -2.9 -1.75) (end -1.75 -2.9) (layer F.CrtYd) (width 0.05))
    (fp_line (start -2.9 1.75) (end -1.75 2.9) (layer F.CrtYd) (width 0.05))
    (fp_line (start -1.75 -2.9) (end 2.9 -2.9) (layer F.CrtYd) (width 0.05))
    (fp_line (start -1.75 2.9) (end 2.9 2.9) (layer F.CrtYd) (width 0.05))
    (fp_line (start 2.9 1.05) (end 2.9 2.9) (layer F.CrtYd) (width 0.05))
    (fp_line (start 3.95 1.05) (end 2.9 1.05) (layer F.CrtYd) (width 0.05))
    (fp_line (start 3.95 -1.05) (end 3.95 1.05) (layer F.CrtYd) (width 0.05))
    (fp_line (start 2.9 -1.05) (end 3.95 -1.05) (layer F.CrtYd) (width 0.05))
    (fp_line (start 2.9 -2.9) (end 2.9 -1.05) (layer F.CrtYd) (width 0.05))
    (fp_line (start -3.3125 -1.9975) (end -3.3125 -1.3725) (layer F.SilkS) (width 0.12))
    (fp_line (start -3.625 -1.685) (end -3 -1.685) (layer F.SilkS) (width 0.12))
    (fp_line (start -2.76 1.695563) (end -1.695563 2.76) (layer F.SilkS) (width 0.12))
    (fp_line (start -2.76 -1.695563) (end -1.695563 -2.76) (layer F.SilkS) (width 0.12))
    (fp_line (start -2.76 -1.695563) (end -2.76 -1.06) (layer F.SilkS) (width 0.12))
    (fp_line (start -2.76 1.695563) (end -2.76 1.06) (layer F.SilkS) (width 0.12))
    (fp_line (start -1.695563 2.76) (end 2.76 2.76) (layer F.SilkS) (width 0.12))
    (fp_line (start -1.695563 -2.76) (end 2.76 -2.76) (layer F.SilkS) (width 0.12))
    (fp_line (start 2.76 -2.76) (end 2.76 -1.06) (layer F.SilkS) (width 0.12))
    (fp_line (start 2.76 2.76) (end 2.76 1.06) (layer F.SilkS) (width 0.12))
    (fp_line (start -1.783956 -1.45) (end -1.783956 -0.95) (layer F.Fab) (width 0.1))
    (fp_line (start -2.033956 -1.2) (end -1.533956 -1.2) (layer F.Fab) (width 0.1))
    (fp_line (start -2.65 1.65) (end -1.65 2.65) (layer F.Fab) (width 0.1))
    (fp_line (start -2.65 -1.65) (end -1.65 -2.65) (layer F.Fab) (width 0.1))
    (fp_line (start -2.65 -1.65) (end -2.65 1.65) (layer F.Fab) (width 0.1))
    (fp_line (start -1.65 2.65) (end 2.65 2.65) (layer F.Fab) (width 0.1))
    (fp_line (start -1.65 -2.65) (end 2.65 -2.65) (layer F.Fab) (width 0.1))
    (fp_line (start 2.65 -2.65) (end 2.65 2.65) (layer F.Fab) (width 0.1))
    (fp_circle (center 0 0) (end 2.5 0) (layer F.Fab) (width 0.1))
    (fp_text user %R (at 0 0 90) (layer F.Fab)
      (effects (font (size 1 1) (thickness 0.15)))
    )
    (pad 1 smd roundrect (at -2.2 0 90) (size 3 1.6) (layers F.Cu F.Paste F.Mask) (roundrect_rratio 0.15625)
      (net 1 "Net-(C1-Pad1)"))
    (pad 2 smd roundrect (at 2.2 0 90) (size 3 1.6) (layers F.Cu F.Paste F.Mask) (roundrect_rratio 0.15625)
      (net 2 "Net-(C1-Pad2)"))
    (model ${KISYS3DMOD}/Capacitor_SMD.3dshapes/CP_Elec_5x5.3.wrl
      (at (xyz 0 0 0))
      (scale (xyz 1 1 1))
      (rotate (xyz 0 0 0))
    )
  )

  (module Capacitor_SMD:CP_Elec_5x5.3 (layer F.Cu) (tedit 5BCA39CF) (tstamp 61820305)
    (at 146.39 78.15)
    (descr "SMD capacitor, aluminum electrolytic, Nichicon, 5.0x5.3mm")
    (tags "capacitor electrolytic")
    (path /6181BCA6)
    (attr smd)
    (fp_text reference C2 (at -3.515 3.13) (layer F.SilkS)
      (effects (font (size 1 1) (thickness 0.15)))
    )
    (fp_text value 22µ-50v (at 0 3.7) (layer F.Fab)
      (effects (font (size 1 1) (thickness 0.15)))
    )
    (fp_text user %R (at 0 0) (layer F.Fab)
      (effects (font (size 1 1) (thickness 0.15)))
    )
    (fp_circle (center 0 0) (end 2.5 0) (layer F.Fab) (width 0.1))
    (fp_line (start 2.65 -2.65) (end 2.65 2.65) (layer F.Fab) (width 0.1))
    (fp_line (start -1.65 -2.65) (end 2.65 -2.65) (layer F.Fab) (width 0.1))
    (fp_line (start -1.65 2.65) (end 2.65 2.65) (layer F.Fab) (width 0.1))
    (fp_line (start -2.65 -1.65) (end -2.65 1.65) (layer F.Fab) (width 0.1))
    (fp_line (start -2.65 -1.65) (end -1.65 -2.65) (layer F.Fab) (width 0.1))
    (fp_line (start -2.65 1.65) (end -1.65 2.65) (layer F.Fab) (width 0.1))
    (fp_line (start -2.033956 -1.2) (end -1.533956 -1.2) (layer F.Fab) (width 0.1))
    (fp_line (start -1.783956 -1.45) (end -1.783956 -0.95) (layer F.Fab) (width 0.1))
    (fp_line (start 2.76 2.76) (end 2.76 1.06) (layer F.SilkS) (width 0.12))
    (fp_line (start 2.76 -2.76) (end 2.76 -1.06) (layer F.SilkS) (width 0.12))
    (fp_line (start -1.695563 -2.76) (end 2.76 -2.76) (layer F.SilkS) (width 0.12))
    (fp_line (start -1.695563 2.76) (end 2.76 2.76) (layer F.SilkS) (width 0.12))
    (fp_line (start -2.76 1.695563) (end -2.76 1.06) (layer F.SilkS) (width 0.12))
    (fp_line (start -2.76 -1.695563) (end -2.76 -1.06) (layer F.SilkS) (width 0.12))
    (fp_line (start -2.76 -1.695563) (end -1.695563 -2.76) (layer F.SilkS) (width 0.12))
    (fp_line (start -2.76 1.695563) (end -1.695563 2.76) (layer F.SilkS) (width 0.12))
    (fp_line (start -3.625 -1.685) (end -3 -1.685) (layer F.SilkS) (width 0.12))
    (fp_line (start -3.3125 -1.9975) (end -3.3125 -1.3725) (layer F.SilkS) (width 0.12))
    (fp_line (start 2.9 -2.9) (end 2.9 -1.05) (layer F.CrtYd) (width 0.05))
    (fp_line (start 2.9 -1.05) (end 3.95 -1.05) (layer F.CrtYd) (width 0.05))
    (fp_line (start 3.95 -1.05) (end 3.95 1.05) (layer F.CrtYd) (width 0.05))
    (fp_line (start 3.95 1.05) (end 2.9 1.05) (layer F.CrtYd) (width 0.05))
    (fp_line (start 2.9 1.05) (end 2.9 2.9) (layer F.CrtYd) (width 0.05))
    (fp_line (start -1.75 2.9) (end 2.9 2.9) (layer F.CrtYd) (width 0.05))
    (fp_line (start -1.75 -2.9) (end 2.9 -2.9) (layer F.CrtYd) (width 0.05))
    (fp_line (start -2.9 1.75) (end -1.75 2.9) (layer F.CrtYd) (width 0.05))
    (fp_line (start -2.9 -1.75) (end -1.75 -2.9) (layer F.CrtYd) (width 0.05))
    (fp_line (start -2.9 -1.75) (end -2.9 -1.05) (layer F.CrtYd) (width 0.05))
    (fp_line (start -2.9 1.05) (end -2.9 1.75) (layer F.CrtYd) (width 0.05))
    (fp_line (start -2.9 -1.05) (end -3.95 -1.05) (layer F.CrtYd) (width 0.05))
    (fp_line (start -3.95 -1.05) (end -3.95 1.05) (layer F.CrtYd) (width 0.05))
    (fp_line (start -3.95 1.05) (end -2.9 1.05) (layer F.CrtYd) (width 0.05))
    (pad 2 smd roundrect (at 2.2 0) (size 3 1.6) (layers F.Cu F.Paste F.Mask) (roundrect_rratio 0.15625)
      (net 3 "Net-(C2-Pad2)"))
    (pad 1 smd roundrect (at -2.2 0) (size 3 1.6) (layers F.Cu F.Paste F.Mask) (roundrect_rratio 0.15625)
      (net 4 "Net-(C2-Pad1)"))
    (model ${KISYS3DMOD}/Capacitor_SMD.3dshapes/CP_Elec_5x5.3.wrl
      (at (xyz 0 0 0))
      (scale (xyz 1 1 1))
      (rotate (xyz 0 0 0))
    )
  )

  (module Capacitor_SMD:CP_Elec_5x5.3 (layer F.Cu) (tedit 5BCA39CF) (tstamp 6182032D)
    (at 152.4 73.66)
    (descr "SMD capacitor, aluminum electrolytic, Nichicon, 5.0x5.3mm")
    (tags "capacitor electrolytic")
    (path /6181EC34)
    (attr smd)
    (fp_text reference C3 (at 0.635 3.81) (layer F.SilkS)
      (effects (font (size 1 1) (thickness 0.15)))
    )
    (fp_text value 22µ-50v (at 0 3.7) (layer F.Fab)
      (effects (font (size 1 1) (thickness 0.15)))
    )
    (fp_line (start -3.95 1.05) (end -2.9 1.05) (layer F.CrtYd) (width 0.05))
    (fp_line (start -3.95 -1.05) (end -3.95 1.05) (layer F.CrtYd) (width 0.05))
    (fp_line (start -2.9 -1.05) (end -3.95 -1.05) (layer F.CrtYd) (width 0.05))
    (fp_line (start -2.9 1.05) (end -2.9 1.75) (layer F.CrtYd) (width 0.05))
    (fp_line (start -2.9 -1.75) (end -2.9 -1.05) (layer F.CrtYd) (width 0.05))
    (fp_line (start -2.9 -1.75) (end -1.75 -2.9) (layer F.CrtYd) (width 0.05))
    (fp_line (start -2.9 1.75) (end -1.75 2.9) (layer F.CrtYd) (width 0.05))
    (fp_line (start -1.75 -2.9) (end 2.9 -2.9) (layer F.CrtYd) (width 0.05))
    (fp_line (start -1.75 2.9) (end 2.9 2.9) (layer F.CrtYd) (width 0.05))
    (fp_line (start 2.9 1.05) (end 2.9 2.9) (layer F.CrtYd) (width 0.05))
    (fp_line (start 3.95 1.05) (end 2.9 1.05) (layer F.CrtYd) (width 0.05))
    (fp_line (start 3.95 -1.05) (end 3.95 1.05) (layer F.CrtYd) (width 0.05))
    (fp_line (start 2.9 -1.05) (end 3.95 -1.05) (layer F.CrtYd) (width 0.05))
    (fp_line (start 2.9 -2.9) (end 2.9 -1.05) (layer F.CrtYd) (width 0.05))
    (fp_line (start -3.3125 -1.9975) (end -3.3125 -1.3725) (layer F.SilkS) (width 0.12))
    (fp_line (start -3.625 -1.685) (end -3 -1.685) (layer F.SilkS) (width 0.12))
    (fp_line (start -2.76 1.695563) (end -1.695563 2.76) (layer F.SilkS) (width 0.12))
    (fp_line (start -2.76 -1.695563) (end -1.695563 -2.76) (layer F.SilkS) (width 0.12))
    (fp_line (start -2.76 -1.695563) (end -2.76 -1.06) (layer F.SilkS) (width 0.12))
    (fp_line (start -2.76 1.695563) (end -2.76 1.06) (layer F.SilkS) (width 0.12))
    (fp_line (start -1.695563 2.76) (end 2.76 2.76) (layer F.SilkS) (width 0.12))
    (fp_line (start -1.695563 -2.76) (end 2.76 -2.76) (layer F.SilkS) (width 0.12))
    (fp_line (start 2.76 -2.76) (end 2.76 -1.06) (layer F.SilkS) (width 0.12))
    (fp_line (start 2.76 2.76) (end 2.76 1.06) (layer F.SilkS) (width 0.12))
    (fp_line (start -1.783956 -1.45) (end -1.783956 -0.95) (layer F.Fab) (width 0.1))
    (fp_line (start -2.033956 -1.2) (end -1.533956 -1.2) (layer F.Fab) (width 0.1))
    (fp_line (start -2.65 1.65) (end -1.65 2.65) (layer F.Fab) (width 0.1))
    (fp_line (start -2.65 -1.65) (end -1.65 -2.65) (layer F.Fab) (width 0.1))
    (fp_line (start -2.65 -1.65) (end -2.65 1.65) (layer F.Fab) (width 0.1))
    (fp_line (start -1.65 2.65) (end 2.65 2.65) (layer F.Fab) (width 0.1))
    (fp_line (start -1.65 -2.65) (end 2.65 -2.65) (layer F.Fab) (width 0.1))
    (fp_line (start 2.65 -2.65) (end 2.65 2.65) (layer F.Fab) (width 0.1))
    (fp_circle (center 0 0) (end 2.5 0) (layer F.Fab) (width 0.1))
    (fp_text user %R (at 0 0) (layer F.Fab)
      (effects (font (size 1 1) (thickness 0.15)))
    )
    (pad 1 smd roundrect (at -2.2 0) (size 3 1.6) (layers F.Cu F.Paste F.Mask) (roundrect_rratio 0.15625)
      (net 5 "Net-(C3-Pad1)"))
    (pad 2 smd roundrect (at 2.2 0) (size 3 1.6) (layers F.Cu F.Paste F.Mask) (roundrect_rratio 0.15625)
      (net 6 "Net-(C3-Pad2)"))
    (model ${KISYS3DMOD}/Capacitor_SMD.3dshapes/CP_Elec_5x5.3.wrl
      (at (xyz 0 0 0))
      (scale (xyz 1 1 1))
      (rotate (xyz 0 0 0))
    )
  )

  (module Capacitor_SMD:CP_Elec_5x5.3 (layer F.Cu) (tedit 5BCA39CF) (tstamp 61820355)
    (at 153.33 67.31 180)
    (descr "SMD capacitor, aluminum electrolytic, Nichicon, 5.0x5.3mm")
    (tags "capacitor electrolytic")
    (path /6181EC3E)
    (attr smd)
    (fp_text reference C4 (at -0.975 3.81) (layer F.SilkS)
      (effects (font (size 1 1) (thickness 0.15)))
    )
    (fp_text value 22µ-50v (at 0 3.7) (layer F.Fab)
      (effects (font (size 1 1) (thickness 0.15)))
    )
    (fp_text user %R (at 0 0) (layer F.Fab)
      (effects (font (size 1 1) (thickness 0.15)))
    )
    (fp_circle (center 0 0) (end 2.5 0) (layer F.Fab) (width 0.1))
    (fp_line (start 2.65 -2.65) (end 2.65 2.65) (layer F.Fab) (width 0.1))
    (fp_line (start -1.65 -2.65) (end 2.65 -2.65) (layer F.Fab) (width 0.1))
    (fp_line (start -1.65 2.65) (end 2.65 2.65) (layer F.Fab) (width 0.1))
    (fp_line (start -2.65 -1.65) (end -2.65 1.65) (layer F.Fab) (width 0.1))
    (fp_line (start -2.65 -1.65) (end -1.65 -2.65) (layer F.Fab) (width 0.1))
    (fp_line (start -2.65 1.65) (end -1.65 2.65) (layer F.Fab) (width 0.1))
    (fp_line (start -2.033956 -1.2) (end -1.533956 -1.2) (layer F.Fab) (width 0.1))
    (fp_line (start -1.783956 -1.45) (end -1.783956 -0.95) (layer F.Fab) (width 0.1))
    (fp_line (start 2.76 2.76) (end 2.76 1.06) (layer F.SilkS) (width 0.12))
    (fp_line (start 2.76 -2.76) (end 2.76 -1.06) (layer F.SilkS) (width 0.12))
    (fp_line (start -1.695563 -2.76) (end 2.76 -2.76) (layer F.SilkS) (width 0.12))
    (fp_line (start -1.695563 2.76) (end 2.76 2.76) (layer F.SilkS) (width 0.12))
    (fp_line (start -2.76 1.695563) (end -2.76 1.06) (layer F.SilkS) (width 0.12))
    (fp_line (start -2.76 -1.695563) (end -2.76 -1.06) (layer F.SilkS) (width 0.12))
    (fp_line (start -2.76 -1.695563) (end -1.695563 -2.76) (layer F.SilkS) (width 0.12))
    (fp_line (start -2.76 1.695563) (end -1.695563 2.76) (layer F.SilkS) (width 0.12))
    (fp_line (start -3.625 -1.685) (end -3 -1.685) (layer F.SilkS) (width 0.12))
    (fp_line (start -3.3125 -1.9975) (end -3.3125 -1.3725) (layer F.SilkS) (width 0.12))
    (fp_line (start 2.9 -2.9) (end 2.9 -1.05) (layer F.CrtYd) (width 0.05))
    (fp_line (start 2.9 -1.05) (end 3.95 -1.05) (layer F.CrtYd) (width 0.05))
    (fp_line (start 3.95 -1.05) (end 3.95 1.05) (layer F.CrtYd) (width 0.05))
    (fp_line (start 3.95 1.05) (end 2.9 1.05) (layer F.CrtYd) (width 0.05))
    (fp_line (start 2.9 1.05) (end 2.9 2.9) (layer F.CrtYd) (width 0.05))
    (fp_line (start -1.75 2.9) (end 2.9 2.9) (layer F.CrtYd) (width 0.05))
    (fp_line (start -1.75 -2.9) (end 2.9 -2.9) (layer F.CrtYd) (width 0.05))
    (fp_line (start -2.9 1.75) (end -1.75 2.9) (layer F.CrtYd) (width 0.05))
    (fp_line (start -2.9 -1.75) (end -1.75 -2.9) (layer F.CrtYd) (width 0.05))
    (fp_line (start -2.9 -1.75) (end -2.9 -1.05) (layer F.CrtYd) (width 0.05))
    (fp_line (start -2.9 1.05) (end -2.9 1.75) (layer F.CrtYd) (width 0.05))
    (fp_line (start -2.9 -1.05) (end -3.95 -1.05) (layer F.CrtYd) (width 0.05))
    (fp_line (start -3.95 -1.05) (end -3.95 1.05) (layer F.CrtYd) (width 0.05))
    (fp_line (start -3.95 1.05) (end -2.9 1.05) (layer F.CrtYd) (width 0.05))
    (pad 2 smd roundrect (at 2.2 0 180) (size 3 1.6) (layers F.Cu F.Paste F.Mask) (roundrect_rratio 0.15625)
      (net 7 "Net-(C4-Pad2)"))
    (pad 1 smd roundrect (at -2.2 0 180) (size 3 1.6) (layers F.Cu F.Paste F.Mask) (roundrect_rratio 0.15625)
      (net 8 "Net-(C4-Pad1)"))
    (model ${KISYS3DMOD}/Capacitor_SMD.3dshapes/CP_Elec_5x5.3.wrl
      (at (xyz 0 0 0))
      (scale (xyz 1 1 1))
      (rotate (xyz 0 0 0))
    )
  )

  (module Capacitor_SMD:CP_Elec_5x5.3 (layer F.Cu) (tedit 5BCA39CF) (tstamp 6182037D)
    (at 144.78 70.78 90)
    (descr "SMD capacitor, aluminum electrolytic, Nichicon, 5.0x5.3mm")
    (tags "capacitor electrolytic")
    (path /61828153)
    (attr smd)
    (fp_text reference C5 (at 4.105 -2.54 180) (layer F.SilkS)
      (effects (font (size 1 1) (thickness 0.15)))
    )
    (fp_text value 22µ-50v (at 0 3.7 90) (layer F.Fab)
      (effects (font (size 1 1) (thickness 0.15)))
    )
    (fp_line (start -3.95 1.05) (end -2.9 1.05) (layer F.CrtYd) (width 0.05))
    (fp_line (start -3.95 -1.05) (end -3.95 1.05) (layer F.CrtYd) (width 0.05))
    (fp_line (start -2.9 -1.05) (end -3.95 -1.05) (layer F.CrtYd) (width 0.05))
    (fp_line (start -2.9 1.05) (end -2.9 1.75) (layer F.CrtYd) (width 0.05))
    (fp_line (start -2.9 -1.75) (end -2.9 -1.05) (layer F.CrtYd) (width 0.05))
    (fp_line (start -2.9 -1.75) (end -1.75 -2.9) (layer F.CrtYd) (width 0.05))
    (fp_line (start -2.9 1.75) (end -1.75 2.9) (layer F.CrtYd) (width 0.05))
    (fp_line (start -1.75 -2.9) (end 2.9 -2.9) (layer F.CrtYd) (width 0.05))
    (fp_line (start -1.75 2.9) (end 2.9 2.9) (layer F.CrtYd) (width 0.05))
    (fp_line (start 2.9 1.05) (end 2.9 2.9) (layer F.CrtYd) (width 0.05))
    (fp_line (start 3.95 1.05) (end 2.9 1.05) (layer F.CrtYd) (width 0.05))
    (fp_line (start 3.95 -1.05) (end 3.95 1.05) (layer F.CrtYd) (width 0.05))
    (fp_line (start 2.9 -1.05) (end 3.95 -1.05) (layer F.CrtYd) (width 0.05))
    (fp_line (start 2.9 -2.9) (end 2.9 -1.05) (layer F.CrtYd) (width 0.05))
    (fp_line (start -3.3125 -1.9975) (end -3.3125 -1.3725) (layer F.SilkS) (width 0.12))
    (fp_line (start -3.625 -1.685) (end -3 -1.685) (layer F.SilkS) (width 0.12))
    (fp_line (start -2.76 1.695563) (end -1.695563 2.76) (layer F.SilkS) (width 0.12))
    (fp_line (start -2.76 -1.695563) (end -1.695563 -2.76) (layer F.SilkS) (width 0.12))
    (fp_line (start -2.76 -1.695563) (end -2.76 -1.06) (layer F.SilkS) (width 0.12))
    (fp_line (start -2.76 1.695563) (end -2.76 1.06) (layer F.SilkS) (width 0.12))
    (fp_line (start -1.695563 2.76) (end 2.76 2.76) (layer F.SilkS) (width 0.12))
    (fp_line (start -1.695563 -2.76) (end 2.76 -2.76) (layer F.SilkS) (width 0.12))
    (fp_line (start 2.76 -2.76) (end 2.76 -1.06) (layer F.SilkS) (width 0.12))
    (fp_line (start 2.76 2.76) (end 2.76 1.06) (layer F.SilkS) (width 0.12))
    (fp_line (start -1.783956 -1.45) (end -1.783956 -0.95) (layer F.Fab) (width 0.1))
    (fp_line (start -2.033956 -1.2) (end -1.533956 -1.2) (layer F.Fab) (width 0.1))
    (fp_line (start -2.65 1.65) (end -1.65 2.65) (layer F.Fab) (width 0.1))
    (fp_line (start -2.65 -1.65) (end -1.65 -2.65) (layer F.Fab) (width 0.1))
    (fp_line (start -2.65 -1.65) (end -2.65 1.65) (layer F.Fab) (width 0.1))
    (fp_line (start -1.65 2.65) (end 2.65 2.65) (layer F.Fab) (width 0.1))
    (fp_line (start -1.65 -2.65) (end 2.65 -2.65) (layer F.Fab) (width 0.1))
    (fp_line (start 2.65 -2.65) (end 2.65 2.65) (layer F.Fab) (width 0.1))
    (fp_circle (center 0 0) (end 2.5 0) (layer F.Fab) (width 0.1))
    (fp_text user %R (at 0 0 90) (layer F.Fab)
      (effects (font (size 1 1) (thickness 0.15)))
    )
    (pad 1 smd roundrect (at -2.2 0 90) (size 3 1.6) (layers F.Cu F.Paste F.Mask) (roundrect_rratio 0.15625)
      (net 9 GND))
    (pad 2 smd roundrect (at 2.2 0 90) (size 3 1.6) (layers F.Cu F.Paste F.Mask) (roundrect_rratio 0.15625)
      (net 10 4_U1U2))
    (model ${KISYS3DMOD}/Capacitor_SMD.3dshapes/CP_Elec_5x5.3.wrl
      (at (xyz 0 0 0))
      (scale (xyz 1 1 1))
      (rotate (xyz 0 0 0))
    )
  )

  (module Capacitor_SMD:CP_Elec_5x5.3 (layer F.Cu) (tedit 5BCA39CF) (tstamp 618203A5)
    (at 146.05 85.09)
    (descr "SMD capacitor, aluminum electrolytic, Nichicon, 5.0x5.3mm")
    (tags "capacitor electrolytic")
    (path /618307D3)
    (attr smd)
    (fp_text reference C6 (at -3.81 2.54) (layer F.SilkS)
      (effects (font (size 1 1) (thickness 0.15)))
    )
    (fp_text value 22µ-50v (at 0 3.7) (layer F.Fab)
      (effects (font (size 1 1) (thickness 0.15)))
    )
    (fp_text user %R (at 0 0) (layer F.Fab)
      (effects (font (size 1 1) (thickness 0.15)))
    )
    (fp_circle (center 0 0) (end 2.5 0) (layer F.Fab) (width 0.1))
    (fp_line (start 2.65 -2.65) (end 2.65 2.65) (layer F.Fab) (width 0.1))
    (fp_line (start -1.65 -2.65) (end 2.65 -2.65) (layer F.Fab) (width 0.1))
    (fp_line (start -1.65 2.65) (end 2.65 2.65) (layer F.Fab) (width 0.1))
    (fp_line (start -2.65 -1.65) (end -2.65 1.65) (layer F.Fab) (width 0.1))
    (fp_line (start -2.65 -1.65) (end -1.65 -2.65) (layer F.Fab) (width 0.1))
    (fp_line (start -2.65 1.65) (end -1.65 2.65) (layer F.Fab) (width 0.1))
    (fp_line (start -2.033956 -1.2) (end -1.533956 -1.2) (layer F.Fab) (width 0.1))
    (fp_line (start -1.783956 -1.45) (end -1.783956 -0.95) (layer F.Fab) (width 0.1))
    (fp_line (start 2.76 2.76) (end 2.76 1.06) (layer F.SilkS) (width 0.12))
    (fp_line (start 2.76 -2.76) (end 2.76 -1.06) (layer F.SilkS) (width 0.12))
    (fp_line (start -1.695563 -2.76) (end 2.76 -2.76) (layer F.SilkS) (width 0.12))
    (fp_line (start -1.695563 2.76) (end 2.76 2.76) (layer F.SilkS) (width 0.12))
    (fp_line (start -2.76 1.695563) (end -2.76 1.06) (layer F.SilkS) (width 0.12))
    (fp_line (start -2.76 -1.695563) (end -2.76 -1.06) (layer F.SilkS) (width 0.12))
    (fp_line (start -2.76 -1.695563) (end -1.695563 -2.76) (layer F.SilkS) (width 0.12))
    (fp_line (start -2.76 1.695563) (end -1.695563 2.76) (layer F.SilkS) (width 0.12))
    (fp_line (start -3.625 -1.685) (end -3 -1.685) (layer F.SilkS) (width 0.12))
    (fp_line (start -3.3125 -1.9975) (end -3.3125 -1.3725) (layer F.SilkS) (width 0.12))
    (fp_line (start 2.9 -2.9) (end 2.9 -1.05) (layer F.CrtYd) (width 0.05))
    (fp_line (start 2.9 -1.05) (end 3.95 -1.05) (layer F.CrtYd) (width 0.05))
    (fp_line (start 3.95 -1.05) (end 3.95 1.05) (layer F.CrtYd) (width 0.05))
    (fp_line (start 3.95 1.05) (end 2.9 1.05) (layer F.CrtYd) (width 0.05))
    (fp_line (start 2.9 1.05) (end 2.9 2.9) (layer F.CrtYd) (width 0.05))
    (fp_line (start -1.75 2.9) (end 2.9 2.9) (layer F.CrtYd) (width 0.05))
    (fp_line (start -1.75 -2.9) (end 2.9 -2.9) (layer F.CrtYd) (width 0.05))
    (fp_line (start -2.9 1.75) (end -1.75 2.9) (layer F.CrtYd) (width 0.05))
    (fp_line (start -2.9 -1.75) (end -1.75 -2.9) (layer F.CrtYd) (width 0.05))
    (fp_line (start -2.9 -1.75) (end -2.9 -1.05) (layer F.CrtYd) (width 0.05))
    (fp_line (start -2.9 1.05) (end -2.9 1.75) (layer F.CrtYd) (width 0.05))
    (fp_line (start -2.9 -1.05) (end -3.95 -1.05) (layer F.CrtYd) (width 0.05))
    (fp_line (start -3.95 -1.05) (end -3.95 1.05) (layer F.CrtYd) (width 0.05))
    (fp_line (start -3.95 1.05) (end -2.9 1.05) (layer F.CrtYd) (width 0.05))
    (pad 2 smd roundrect (at 2.2 0) (size 3 1.6) (layers F.Cu F.Paste F.Mask) (roundrect_rratio 0.15625)
      (net 11 +5V))
    (pad 1 smd roundrect (at -2.2 0) (size 3 1.6) (layers F.Cu F.Paste F.Mask) (roundrect_rratio 0.15625)
      (net 12 8_U1U2))
    (model ${KISYS3DMOD}/Capacitor_SMD.3dshapes/CP_Elec_5x5.3.wrl
      (at (xyz 0 0 0))
      (scale (xyz 1 1 1))
      (rotate (xyz 0 0 0))
    )
  )

  (module Connector_PinSocket_2.54mm:PinSocket_1x04_P2.54mm_Horizontal (layer F.Cu) (tedit 5A19A424) (tstamp 618203E9)
    (at 148.59 64.135 270)
    (descr "Through hole angled socket strip, 1x04, 2.54mm pitch, 8.51mm socket length, single row (from Kicad 4.0.7), script generated")
    (tags "Through hole angled socket strip THT 1x04 2.54mm single row")
    (path /61836C05)
    (fp_text reference J1 (at -4.38 -2.77 90) (layer F.SilkS)
      (effects (font (size 1 1) (thickness 0.15)))
    )
    (fp_text value in/out (at -4.38 10.39 90) (layer F.Fab)
      (effects (font (size 1 1) (thickness 0.15)))
    )
    (fp_line (start 1.75 9.45) (end 1.75 -1.75) (layer F.CrtYd) (width 0.05))
    (fp_line (start -10.55 9.45) (end 1.75 9.45) (layer F.CrtYd) (width 0.05))
    (fp_line (start -10.55 -1.75) (end -10.55 9.45) (layer F.CrtYd) (width 0.05))
    (fp_line (start 1.75 -1.75) (end -10.55 -1.75) (layer F.CrtYd) (width 0.05))
    (fp_line (start 0 -1.33) (end 1.11 -1.33) (layer F.SilkS) (width 0.12))
    (fp_line (start 1.11 -1.33) (end 1.11 0) (layer F.SilkS) (width 0.12))
    (fp_line (start -10.09 -1.33) (end -10.09 8.95) (layer F.SilkS) (width 0.12))
    (fp_line (start -10.09 8.95) (end -1.46 8.95) (layer F.SilkS) (width 0.12))
    (fp_line (start -1.46 -1.33) (end -1.46 8.95) (layer F.SilkS) (width 0.12))
    (fp_line (start -10.09 -1.33) (end -1.46 -1.33) (layer F.SilkS) (width 0.12))
    (fp_line (start -10.09 6.35) (end -1.46 6.35) (layer F.SilkS) (width 0.12))
    (fp_line (start -10.09 3.81) (end -1.46 3.81) (layer F.SilkS) (width 0.12))
    (fp_line (start -10.09 1.27) (end -1.46 1.27) (layer F.SilkS) (width 0.12))
    (fp_line (start -1.46 7.98) (end -1.05 7.98) (layer F.SilkS) (width 0.12))
    (fp_line (start -1.46 7.26) (end -1.05 7.26) (layer F.SilkS) (width 0.12))
    (fp_line (start -1.46 5.44) (end -1.05 5.44) (layer F.SilkS) (width 0.12))
    (fp_line (start -1.46 4.72) (end -1.05 4.72) (layer F.SilkS) (width 0.12))
    (fp_line (start -1.46 2.9) (end -1.05 2.9) (layer F.SilkS) (width 0.12))
    (fp_line (start -1.46 2.18) (end -1.05 2.18) (layer F.SilkS) (width 0.12))
    (fp_line (start -1.46 0.36) (end -1.11 0.36) (layer F.SilkS) (width 0.12))
    (fp_line (start -1.46 -0.36) (end -1.11 -0.36) (layer F.SilkS) (width 0.12))
    (fp_line (start -10.09 1.1519) (end -1.46 1.1519) (layer F.SilkS) (width 0.12))
    (fp_line (start -10.09 1.033805) (end -1.46 1.033805) (layer F.SilkS) (width 0.12))
    (fp_line (start -10.09 0.91571) (end -1.46 0.91571) (layer F.SilkS) (width 0.12))
    (fp_line (start -10.09 0.797615) (end -1.46 0.797615) (layer F.SilkS) (width 0.12))
    (fp_line (start -10.09 0.67952) (end -1.46 0.67952) (layer F.SilkS) (width 0.12))
    (fp_line (start -10.09 0.561425) (end -1.46 0.561425) (layer F.SilkS) (width 0.12))
    (fp_line (start -10.09 0.44333) (end -1.46 0.44333) (layer F.SilkS) (width 0.12))
    (fp_line (start -10.09 0.325235) (end -1.46 0.325235) (layer F.SilkS) (width 0.12))
    (fp_line (start -10.09 0.20714) (end -1.46 0.20714) (layer F.SilkS) (width 0.12))
    (fp_line (start -10.09 0.089045) (end -1.46 0.089045) (layer F.SilkS) (width 0.12))
    (fp_line (start -10.09 -0.02905) (end -1.46 -0.02905) (layer F.SilkS) (width 0.12))
    (fp_line (start -10.09 -0.147145) (end -1.46 -0.147145) (layer F.SilkS) (width 0.12))
    (fp_line (start -10.09 -0.26524) (end -1.46 -0.26524) (layer F.SilkS) (width 0.12))
    (fp_line (start -10.09 -0.383335) (end -1.46 -0.383335) (layer F.SilkS) (width 0.12))
    (fp_line (start -10.09 -0.50143) (end -1.46 -0.50143) (layer F.SilkS) (width 0.12))
    (fp_line (start -10.09 -0.619525) (end -1.46 -0.619525) (layer F.SilkS) (width 0.12))
    (fp_line (start -10.09 -0.73762) (end -1.46 -0.73762) (layer F.SilkS) (width 0.12))
    (fp_line (start -10.09 -0.855715) (end -1.46 -0.855715) (layer F.SilkS) (width 0.12))
    (fp_line (start -10.09 -0.97381) (end -1.46 -0.97381) (layer F.SilkS) (width 0.12))
    (fp_line (start -10.09 -1.091905) (end -1.46 -1.091905) (layer F.SilkS) (width 0.12))
    (fp_line (start -10.09 -1.21) (end -1.46 -1.21) (layer F.SilkS) (width 0.12))
    (fp_line (start 0 7.92) (end 0 7.32) (layer F.Fab) (width 0.1))
    (fp_line (start -1.52 7.92) (end 0 7.92) (layer F.Fab) (width 0.1))
    (fp_line (start 0 7.32) (end -1.52 7.32) (layer F.Fab) (width 0.1))
    (fp_line (start 0 5.38) (end 0 4.78) (layer F.Fab) (width 0.1))
    (fp_line (start -1.52 5.38) (end 0 5.38) (layer F.Fab) (width 0.1))
    (fp_line (start 0 4.78) (end -1.52 4.78) (layer F.Fab) (width 0.1))
    (fp_line (start 0 2.84) (end 0 2.24) (layer F.Fab) (width 0.1))
    (fp_line (start -1.52 2.84) (end 0 2.84) (layer F.Fab) (width 0.1))
    (fp_line (start 0 2.24) (end -1.52 2.24) (layer F.Fab) (width 0.1))
    (fp_line (start 0 0.3) (end 0 -0.3) (layer F.Fab) (width 0.1))
    (fp_line (start -1.52 0.3) (end 0 0.3) (layer F.Fab) (width 0.1))
    (fp_line (start 0 -0.3) (end -1.52 -0.3) (layer F.Fab) (width 0.1))
    (fp_line (start -10.03 8.89) (end -10.03 -1.27) (layer F.Fab) (width 0.1))
    (fp_line (start -1.52 8.89) (end -10.03 8.89) (layer F.Fab) (width 0.1))
    (fp_line (start -1.52 -0.3) (end -1.52 8.89) (layer F.Fab) (width 0.1))
    (fp_line (start -2.49 -1.27) (end -1.52 -0.3) (layer F.Fab) (width 0.1))
    (fp_line (start -10.03 -1.27) (end -2.49 -1.27) (layer F.Fab) (width 0.1))
    (fp_text user %R (at -5.775 3.81) (layer F.Fab)
      (effects (font (size 1 1) (thickness 0.15)))
    )
    (pad 1 thru_hole rect (at 0 0 270) (size 1.7 1.7) (drill 1) (layers *.Cu *.Mask)
      (net 12 8_U1U2))
    (pad 2 thru_hole oval (at 0 2.54 270) (size 1.7 1.7) (drill 1) (layers *.Cu *.Mask)
      (net 11 +5V))
    (pad 3 thru_hole oval (at 0 5.08 270) (size 1.7 1.7) (drill 1) (layers *.Cu *.Mask)
      (net 9 GND))
    (pad 4 thru_hole oval (at 0 7.62 270) (size 1.7 1.7) (drill 1) (layers *.Cu *.Mask)
      (net 10 4_U1U2))
    (model ${KISYS3DMOD}/Connector_PinSocket_2.54mm.3dshapes/PinSocket_1x04_P2.54mm_Horizontal.wrl
      (at (xyz 0 0 0))
      (scale (xyz 1 1 1))
      (rotate (xyz 0 0 0))
    )
  )

  (module Connector_USB:USB_A_Stewart_SS-52100-001_Horizontal (layer F.Cu) (tedit 5CB49A87) (tstamp 6182041D)
    (at 139.87 72.48 270)
    (descr "USB A connector https://belfuse.com/resources/drawings/stewartconnector/dr-stw-ss-52100-001.pdf")
    (tags "USB_A Female Connector receptacle")
    (path /618434D5)
    (fp_text reference J2 (at 11.34 5.885 180) (layer F.SilkS)
      (effects (font (size 1 1) (thickness 0.15)))
    )
    (fp_text value USB_A (at 3.5 14.49 90) (layer F.Fab)
      (effects (font (size 1 1) (thickness 0.15)))
    )
    (fp_line (start -5.15 1.99) (end -4.25 0.69) (layer F.CrtYd) (width 0.05))
    (fp_line (start -5.15 3.44) (end -5.15 1.99) (layer F.CrtYd) (width 0.05))
    (fp_line (start -3.25 4.74) (end -4.25 4.74) (layer F.CrtYd) (width 0.05))
    (fp_line (start -5.15 3.44) (end -4.25 4.74) (layer F.CrtYd) (width 0.05))
    (fp_line (start -3.25 0.69) (end -4.25 0.69) (layer F.CrtYd) (width 0.05))
    (fp_line (start 12.15 3.44) (end 11.25 4.74) (layer F.CrtYd) (width 0.05))
    (fp_line (start -3.25 0.69) (end -3.25 -1.51) (layer F.CrtYd) (width 0.05))
    (fp_line (start 10.25 -1.51) (end -3.25 -1.51) (layer F.CrtYd) (width 0.05))
    (fp_line (start 10.25 0.69) (end 10.25 -1.51) (layer F.CrtYd) (width 0.05))
    (fp_line (start 12.15 1.99) (end 12.15 3.44) (layer F.CrtYd) (width 0.05))
    (fp_line (start 10.25 0.69) (end 11.25 0.69) (layer F.CrtYd) (width 0.05))
    (fp_line (start 12.15 1.99) (end 11.25 0.69) (layer F.CrtYd) (width 0.05))
    (fp_line (start 10.75 12.49) (end 10.75 12.99) (layer F.Fab) (width 0.1))
    (fp_line (start 9.75 12.49) (end 10.75 12.49) (layer F.Fab) (width 0.1))
    (fp_line (start -3.75 12.49) (end -2.75 12.49) (layer F.Fab) (width 0.1))
    (fp_line (start -3.75 12.99) (end -3.75 12.49) (layer F.Fab) (width 0.1))
    (fp_line (start -3.75 12.99) (end 10.75 12.99) (layer F.Fab) (width 0.1))
    (fp_line (start -2.75 12.49) (end -2.75 -1.01) (layer F.Fab) (width 0.1))
    (fp_line (start -2.75 -1.01) (end 9.75 -1.01) (layer F.Fab) (width 0.1))
    (fp_line (start 9.75 12.49) (end 9.75 -1.01) (layer F.Fab) (width 0.1))
    (fp_line (start -3.75 12.99) (end 10.75 12.99) (layer F.SilkS) (width 0.12))
    (fp_line (start 10.75 12.99) (end 10.75 12.49) (layer F.SilkS) (width 0.12))
    (fp_line (start 10.75 12.49) (end 9.75 12.49) (layer F.SilkS) (width 0.12))
    (fp_line (start 9.75 12.49) (end 9.75 4.49) (layer F.SilkS) (width 0.12))
    (fp_line (start 9.75 0.99) (end 9.75 -1.01) (layer F.SilkS) (width 0.12))
    (fp_line (start 9.75 -1.01) (end -2.75 -1.01) (layer F.SilkS) (width 0.12))
    (fp_line (start -2.75 -1.01) (end -2.75 0.99) (layer F.SilkS) (width 0.12))
    (fp_line (start -2.75 4.49) (end -2.75 12.49) (layer F.SilkS) (width 0.12))
    (fp_line (start -2.75 12.49) (end -3.75 12.49) (layer F.SilkS) (width 0.12))
    (fp_line (start -3.75 12.49) (end -3.75 12.99) (layer F.SilkS) (width 0.12))
    (fp_line (start -0.5 -1.26) (end 0.5 -1.26) (layer F.SilkS) (width 0.12))
    (fp_line (start -0.25 -1.01) (end 0 -0.76) (layer F.Fab) (width 0.1))
    (fp_line (start 0 -0.76) (end 0.25 -1.01) (layer F.Fab) (width 0.1))
    (fp_line (start -3.25 4.74) (end -3.25 11.99) (layer F.CrtYd) (width 0.05))
    (fp_line (start -3.25 11.99) (end -4.25 11.99) (layer F.CrtYd) (width 0.05))
    (fp_line (start -4.25 11.99) (end -4.25 13.49) (layer F.CrtYd) (width 0.05))
    (fp_line (start -4.25 13.49) (end 11.25 13.49) (layer F.CrtYd) (width 0.05))
    (fp_line (start 11.25 13.49) (end 11.25 11.99) (layer F.CrtYd) (width 0.05))
    (fp_line (start 11.25 11.99) (end 10.25 11.99) (layer F.CrtYd) (width 0.05))
    (fp_line (start 10.25 11.99) (end 10.25 4.74) (layer F.CrtYd) (width 0.05))
    (fp_line (start 10.25 4.74) (end 11.25 4.74) (layer F.CrtYd) (width 0.05))
    (fp_text user %R (at 3.5 5.99 90) (layer F.Fab)
      (effects (font (size 1 1) (thickness 0.15)))
    )
    (pad 5 thru_hole circle (at 10.07 2.71 270) (size 3 3) (drill 2.3) (layers *.Cu *.Mask)
      (net 9 GND))
    (pad 5 thru_hole circle (at -3.07 2.71 270) (size 3 3) (drill 2.3) (layers *.Cu *.Mask)
      (net 9 GND))
    (pad 1 thru_hole rect (at 0 0 270) (size 1.6 1.6) (drill 0.92) (layers *.Cu *.Mask)
      (net 13 "Net-(J2-Pad1)"))
    (pad 2 thru_hole circle (at 2.5 0 270) (size 1.6 1.6) (drill 0.92) (layers *.Cu *.Mask))
    (pad 3 thru_hole circle (at 4.5 0 270) (size 1.6 1.6) (drill 0.92) (layers *.Cu *.Mask))
    (pad 4 thru_hole circle (at 7 0 270) (size 1.6 1.6) (drill 0.92) (layers *.Cu *.Mask)
      (net 9 GND))
    (model ${KISYS3DMOD}/Connector_USB.3dshapes/USB_A_Stewart_SS-52100-001_Horizontal.wrl
      (at (xyz 0 0 0))
      (scale (xyz 1 1 1))
      (rotate (xyz 0 0 0))
    )
  )

  (module Connector_PinHeader_2.54mm:PinHeader_1x03_P2.54mm_Horizontal (layer F.Cu) (tedit 59FED5CB) (tstamp 6182045D)
    (at 137.16 64.77 180)
    (descr "Through hole angled pin header, 1x03, 2.54mm pitch, 6mm pin length, single row")
    (tags "Through hole angled pin header THT 1x03 2.54mm single row")
    (path /6184F472)
    (fp_text reference SW1 (at 4.385 -2.27) (layer F.SilkS)
      (effects (font (size 1 1) (thickness 0.15)))
    )
    (fp_text value ON-OFF (at 4.385 7.35) (layer F.Fab)
      (effects (font (size 1 1) (thickness 0.15)))
    )
    (fp_line (start 10.55 -1.8) (end -1.8 -1.8) (layer F.CrtYd) (width 0.05))
    (fp_line (start 10.55 6.85) (end 10.55 -1.8) (layer F.CrtYd) (width 0.05))
    (fp_line (start -1.8 6.85) (end 10.55 6.85) (layer F.CrtYd) (width 0.05))
    (fp_line (start -1.8 -1.8) (end -1.8 6.85) (layer F.CrtYd) (width 0.05))
    (fp_line (start -1.27 -1.27) (end 0 -1.27) (layer F.SilkS) (width 0.12))
    (fp_line (start -1.27 0) (end -1.27 -1.27) (layer F.SilkS) (width 0.12))
    (fp_line (start 1.042929 5.46) (end 1.44 5.46) (layer F.SilkS) (width 0.12))
    (fp_line (start 1.042929 4.7) (end 1.44 4.7) (layer F.SilkS) (width 0.12))
    (fp_line (start 10.1 5.46) (end 4.1 5.46) (layer F.SilkS) (width 0.12))
    (fp_line (start 10.1 4.7) (end 10.1 5.46) (layer F.SilkS) (width 0.12))
    (fp_line (start 4.1 4.7) (end 10.1 4.7) (layer F.SilkS) (width 0.12))
    (fp_line (start 1.44 3.81) (end 4.1 3.81) (layer F.SilkS) (width 0.12))
    (fp_line (start 1.042929 2.92) (end 1.44 2.92) (layer F.SilkS) (width 0.12))
    (fp_line (start 1.042929 2.16) (end 1.44 2.16) (layer F.SilkS) (width 0.12))
    (fp_line (start 10.1 2.92) (end 4.1 2.92) (layer F.SilkS) (width 0.12))
    (fp_line (start 10.1 2.16) (end 10.1 2.92) (layer F.SilkS) (width 0.12))
    (fp_line (start 4.1 2.16) (end 10.1 2.16) (layer F.SilkS) (width 0.12))
    (fp_line (start 1.44 1.27) (end 4.1 1.27) (layer F.SilkS) (width 0.12))
    (fp_line (start 1.11 0.38) (end 1.44 0.38) (layer F.SilkS) (width 0.12))
    (fp_line (start 1.11 -0.38) (end 1.44 -0.38) (layer F.SilkS) (width 0.12))
    (fp_line (start 4.1 0.28) (end 10.1 0.28) (layer F.SilkS) (width 0.12))
    (fp_line (start 4.1 0.16) (end 10.1 0.16) (layer F.SilkS) (width 0.12))
    (fp_line (start 4.1 0.04) (end 10.1 0.04) (layer F.SilkS) (width 0.12))
    (fp_line (start 4.1 -0.08) (end 10.1 -0.08) (layer F.SilkS) (width 0.12))
    (fp_line (start 4.1 -0.2) (end 10.1 -0.2) (layer F.SilkS) (width 0.12))
    (fp_line (start 4.1 -0.32) (end 10.1 -0.32) (layer F.SilkS) (width 0.12))
    (fp_line (start 10.1 0.38) (end 4.1 0.38) (layer F.SilkS) (width 0.12))
    (fp_line (start 10.1 -0.38) (end 10.1 0.38) (layer F.SilkS) (width 0.12))
    (fp_line (start 4.1 -0.38) (end 10.1 -0.38) (layer F.SilkS) (width 0.12))
    (fp_line (start 4.1 -1.33) (end 1.44 -1.33) (layer F.SilkS) (width 0.12))
    (fp_line (start 4.1 6.41) (end 4.1 -1.33) (layer F.SilkS) (width 0.12))
    (fp_line (start 1.44 6.41) (end 4.1 6.41) (layer F.SilkS) (width 0.12))
    (fp_line (start 1.44 -1.33) (end 1.44 6.41) (layer F.SilkS) (width 0.12))
    (fp_line (start 4.04 5.4) (end 10.04 5.4) (layer F.Fab) (width 0.1))
    (fp_line (start 10.04 4.76) (end 10.04 5.4) (layer F.Fab) (width 0.1))
    (fp_line (start 4.04 4.76) (end 10.04 4.76) (layer F.Fab) (width 0.1))
    (fp_line (start -0.32 5.4) (end 1.5 5.4) (layer F.Fab) (width 0.1))
    (fp_line (start -0.32 4.76) (end -0.32 5.4) (layer F.Fab) (width 0.1))
    (fp_line (start -0.32 4.76) (end 1.5 4.76) (layer F.Fab) (width 0.1))
    (fp_line (start 4.04 2.86) (end 10.04 2.86) (layer F.Fab) (width 0.1))
    (fp_line (start 10.04 2.22) (end 10.04 2.86) (layer F.Fab) (width 0.1))
    (fp_line (start 4.04 2.22) (end 10.04 2.22) (layer F.Fab) (width 0.1))
    (fp_line (start -0.32 2.86) (end 1.5 2.86) (layer F.Fab) (width 0.1))
    (fp_line (start -0.32 2.22) (end -0.32 2.86) (layer F.Fab) (width 0.1))
    (fp_line (start -0.32 2.22) (end 1.5 2.22) (layer F.Fab) (width 0.1))
    (fp_line (start 4.04 0.32) (end 10.04 0.32) (layer F.Fab) (width 0.1))
    (fp_line (start 10.04 -0.32) (end 10.04 0.32) (layer F.Fab) (width 0.1))
    (fp_line (start 4.04 -0.32) (end 10.04 -0.32) (layer F.Fab) (width 0.1))
    (fp_line (start -0.32 0.32) (end 1.5 0.32) (layer F.Fab) (width 0.1))
    (fp_line (start -0.32 -0.32) (end -0.32 0.32) (layer F.Fab) (width 0.1))
    (fp_line (start -0.32 -0.32) (end 1.5 -0.32) (layer F.Fab) (width 0.1))
    (fp_line (start 1.5 -0.635) (end 2.135 -1.27) (layer F.Fab) (width 0.1))
    (fp_line (start 1.5 6.35) (end 1.5 -0.635) (layer F.Fab) (width 0.1))
    (fp_line (start 4.04 6.35) (end 1.5 6.35) (layer F.Fab) (width 0.1))
    (fp_line (start 4.04 -1.27) (end 4.04 6.35) (layer F.Fab) (width 0.1))
    (fp_line (start 2.135 -1.27) (end 4.04 -1.27) (layer F.Fab) (width 0.1))
    (fp_text user %R (at 2.77 2.54 90) (layer F.Fab)
      (effects (font (size 1 1) (thickness 0.15)))
    )
    (pad 1 thru_hole rect (at 0 0 180) (size 1.7 1.7) (drill 1) (layers *.Cu *.Mask))
    (pad 2 thru_hole oval (at 0 2.54 180) (size 1.7 1.7) (drill 1) (layers *.Cu *.Mask)
      (net 13 "Net-(J2-Pad1)"))
    (pad 3 thru_hole oval (at 0 5.08 180) (size 1.7 1.7) (drill 1) (layers *.Cu *.Mask)
      (net 11 +5V))
    (model ${KISYS3DMOD}/Connector_PinHeader_2.54mm.3dshapes/PinHeader_1x03_P2.54mm_Horizontal.wrl
      (at (xyz 0 0 0))
      (scale (xyz 1 1 1))
      (rotate (xyz 0 0 0))
    )
  )

  (module Package_SO:SOIC-8_3.9x4.9mm_P1.27mm (layer B.Cu) (tedit 5D9F72B1) (tstamp 61820477)
    (at 146.05 81.28 270)
    (descr "SOIC, 8 Pin (JEDEC MS-012AA, https://www.analog.com/media/en/package-pcb-resources/package/pkg_pdf/soic_narrow-r/r_8.pdf), generated with kicad-footprint-generator ipc_gullwing_generator.py")
    (tags "SOIC SO")
    (path /6181A0F7)
    (attr smd)
    (fp_text reference U1 (at 0 3.4 90) (layer B.SilkS)
      (effects (font (size 1 1) (thickness 0.15)) (justify mirror))
    )
    (fp_text value MAX680 (at 0 -3.4 90) (layer B.Fab)
      (effects (font (size 1 1) (thickness 0.15)) (justify mirror))
    )
    (fp_line (start 3.7 2.7) (end -3.7 2.7) (layer B.CrtYd) (width 0.05))
    (fp_line (start 3.7 -2.7) (end 3.7 2.7) (layer B.CrtYd) (width 0.05))
    (fp_line (start -3.7 -2.7) (end 3.7 -2.7) (layer B.CrtYd) (width 0.05))
    (fp_line (start -3.7 2.7) (end -3.7 -2.7) (layer B.CrtYd) (width 0.05))
    (fp_line (start -1.95 1.475) (end -0.975 2.45) (layer B.Fab) (width 0.1))
    (fp_line (start -1.95 -2.45) (end -1.95 1.475) (layer B.Fab) (width 0.1))
    (fp_line (start 1.95 -2.45) (end -1.95 -2.45) (layer B.Fab) (width 0.1))
    (fp_line (start 1.95 2.45) (end 1.95 -2.45) (layer B.Fab) (width 0.1))
    (fp_line (start -0.975 2.45) (end 1.95 2.45) (layer B.Fab) (width 0.1))
    (fp_line (start 0 2.56) (end -3.45 2.56) (layer B.SilkS) (width 0.12))
    (fp_line (start 0 2.56) (end 1.95 2.56) (layer B.SilkS) (width 0.12))
    (fp_line (start 0 -2.56) (end -1.95 -2.56) (layer B.SilkS) (width 0.12))
    (fp_line (start 0 -2.56) (end 1.95 -2.56) (layer B.SilkS) (width 0.12))
    (fp_text user %R (at 0 0 90) (layer B.Fab)
      (effects (font (size 0.98 0.98) (thickness 0.15)) (justify mirror))
    )
    (pad 1 smd roundrect (at -2.475 1.905 270) (size 1.95 0.6) (layers B.Cu B.Paste B.Mask) (roundrect_rratio 0.25)
      (net 2 "Net-(C1-Pad2)"))
    (pad 2 smd roundrect (at -2.475 0.635 270) (size 1.95 0.6) (layers B.Cu B.Paste B.Mask) (roundrect_rratio 0.25)
      (net 4 "Net-(C2-Pad1)"))
    (pad 3 smd roundrect (at -2.475 -0.635 270) (size 1.95 0.6) (layers B.Cu B.Paste B.Mask) (roundrect_rratio 0.25)
      (net 3 "Net-(C2-Pad2)"))
    (pad 4 smd roundrect (at -2.475 -1.905 270) (size 1.95 0.6) (layers B.Cu B.Paste B.Mask) (roundrect_rratio 0.25)
      (net 10 4_U1U2))
    (pad 5 smd roundrect (at 2.475 -1.905 270) (size 1.95 0.6) (layers B.Cu B.Paste B.Mask) (roundrect_rratio 0.25)
      (net 9 GND))
    (pad 6 smd roundrect (at 2.475 -0.635 270) (size 1.95 0.6) (layers B.Cu B.Paste B.Mask) (roundrect_rratio 0.25)
      (net 11 +5V))
    (pad 7 smd roundrect (at 2.475 0.635 270) (size 1.95 0.6) (layers B.Cu B.Paste B.Mask) (roundrect_rratio 0.25)
      (net 1 "Net-(C1-Pad1)"))
    (pad 8 smd roundrect (at 2.475 1.905 270) (size 1.95 0.6) (layers B.Cu B.Paste B.Mask) (roundrect_rratio 0.25)
      (net 12 8_U1U2))
    (model ${KISYS3DMOD}/Package_SO.3dshapes/SOIC-8_3.9x4.9mm_P1.27mm.wrl
      (at (xyz 0 0 0))
      (scale (xyz 1 1 1))
      (rotate (xyz 0 0 0))
    )
  )

  (module Package_SO:SOIC-8_3.9x4.9mm_P1.27mm (layer B.Cu) (tedit 5D9F72B1) (tstamp 61820491)
    (at 149.86 71.12 180)
    (descr "SOIC, 8 Pin (JEDEC MS-012AA, https://www.analog.com/media/en/package-pcb-resources/package/pkg_pdf/soic_narrow-r/r_8.pdf), generated with kicad-footprint-generator ipc_gullwing_generator.py")
    (tags "SOIC SO")
    (path /6181EBAA)
    (attr smd)
    (fp_text reference U2 (at 0 3.4 180) (layer B.SilkS)
      (effects (font (size 1 1) (thickness 0.15)) (justify mirror))
    )
    (fp_text value MAX680 (at 0 -3.4 180) (layer B.Fab)
      (effects (font (size 1 1) (thickness 0.15)) (justify mirror))
    )
    (fp_text user %R (at 0 0 180) (layer B.Fab)
      (effects (font (size 0.98 0.98) (thickness 0.15)) (justify mirror))
    )
    (fp_line (start 0 -2.56) (end 1.95 -2.56) (layer B.SilkS) (width 0.12))
    (fp_line (start 0 -2.56) (end -1.95 -2.56) (layer B.SilkS) (width 0.12))
    (fp_line (start 0 2.56) (end 1.95 2.56) (layer B.SilkS) (width 0.12))
    (fp_line (start 0 2.56) (end -3.45 2.56) (layer B.SilkS) (width 0.12))
    (fp_line (start -0.975 2.45) (end 1.95 2.45) (layer B.Fab) (width 0.1))
    (fp_line (start 1.95 2.45) (end 1.95 -2.45) (layer B.Fab) (width 0.1))
    (fp_line (start 1.95 -2.45) (end -1.95 -2.45) (layer B.Fab) (width 0.1))
    (fp_line (start -1.95 -2.45) (end -1.95 1.475) (layer B.Fab) (width 0.1))
    (fp_line (start -1.95 1.475) (end -0.975 2.45) (layer B.Fab) (width 0.1))
    (fp_line (start -3.7 2.7) (end -3.7 -2.7) (layer B.CrtYd) (width 0.05))
    (fp_line (start -3.7 -2.7) (end 3.7 -2.7) (layer B.CrtYd) (width 0.05))
    (fp_line (start 3.7 -2.7) (end 3.7 2.7) (layer B.CrtYd) (width 0.05))
    (fp_line (start 3.7 2.7) (end -3.7 2.7) (layer B.CrtYd) (width 0.05))
    (pad 8 smd roundrect (at 2.475 1.905 180) (size 1.95 0.6) (layers B.Cu B.Paste B.Mask) (roundrect_rratio 0.25)
      (net 12 8_U1U2))
    (pad 7 smd roundrect (at 2.475 0.635 180) (size 1.95 0.6) (layers B.Cu B.Paste B.Mask) (roundrect_rratio 0.25)
      (net 5 "Net-(C3-Pad1)"))
    (pad 6 smd roundrect (at 2.475 -0.635 180) (size 1.95 0.6) (layers B.Cu B.Paste B.Mask) (roundrect_rratio 0.25)
      (net 11 +5V))
    (pad 5 smd roundrect (at 2.475 -1.905 180) (size 1.95 0.6) (layers B.Cu B.Paste B.Mask) (roundrect_rratio 0.25)
      (net 9 GND))
    (pad 4 smd roundrect (at -2.475 -1.905 180) (size 1.95 0.6) (layers B.Cu B.Paste B.Mask) (roundrect_rratio 0.25)
      (net 10 4_U1U2))
    (pad 3 smd roundrect (at -2.475 -0.635 180) (size 1.95 0.6) (layers B.Cu B.Paste B.Mask) (roundrect_rratio 0.25)
      (net 7 "Net-(C4-Pad2)"))
    (pad 2 smd roundrect (at -2.475 0.635 180) (size 1.95 0.6) (layers B.Cu B.Paste B.Mask) (roundrect_rratio 0.25)
      (net 8 "Net-(C4-Pad1)"))
    (pad 1 smd roundrect (at -2.475 1.905 180) (size 1.95 0.6) (layers B.Cu B.Paste B.Mask) (roundrect_rratio 0.25)
      (net 6 "Net-(C3-Pad2)"))
    (model ${KISYS3DMOD}/Package_SO.3dshapes/SOIC-8_3.9x4.9mm_P1.27mm.wrl
      (at (xyz 0 0 0))
      (scale (xyz 1 1 1))
      (rotate (xyz 0 0 0))
    )
  )

  (dimension 10.16 (width 0.15) (layer Eco1.User)
    (gr_text "10,160 mm" (at 135.89 90.835) (layer Eco1.User)
      (effects (font (size 1 1) (thickness 0.15)))
    )
    (feature1 (pts (xy 130.81 88.9) (xy 130.81 90.121421)))
    (feature2 (pts (xy 140.97 88.9) (xy 140.97 90.121421)))
    (crossbar (pts (xy 140.97 89.535) (xy 130.81 89.535)))
    (arrow1a (pts (xy 130.81 89.535) (xy 131.936504 88.948579)))
    (arrow1b (pts (xy 130.81 89.535) (xy 131.936504 90.121421)))
    (arrow2a (pts (xy 140.97 89.535) (xy 139.843496 88.948579)))
    (arrow2b (pts (xy 140.97 89.535) (xy 139.843496 90.121421)))
  )
  (dimension 6.35 (width 0.15) (layer Eco1.User)
    (gr_text "6,350 mm" (at 150.465 60.96 270) (layer Eco1.User)
      (effects (font (size 1 1) (thickness 0.15)))
    )
    (feature1 (pts (xy 158.115 64.135) (xy 151.178579 64.135)))
    (feature2 (pts (xy 158.115 57.785) (xy 151.178579 57.785)))
    (crossbar (pts (xy 151.765 57.785) (xy 151.765 64.135)))
    (arrow1a (pts (xy 151.765 64.135) (xy 151.178579 63.008496)))
    (arrow1b (pts (xy 151.765 64.135) (xy 152.351421 63.008496)))
    (arrow2a (pts (xy 151.765 57.785) (xy 151.178579 58.911504)))
    (arrow2b (pts (xy 151.765 57.785) (xy 152.351421 58.911504)))
  )
  (dimension 9.525 (width 0.15) (layer Eco1.User)
    (gr_text "9,525 mm" (at 132.3975 56.545) (layer Eco1.User)
      (effects (font (size 1 1) (thickness 0.15)))
    )
    (feature1 (pts (xy 127.635 54.61) (xy 127.635 55.831421)))
    (feature2 (pts (xy 137.16 54.61) (xy 137.16 55.831421)))
    (crossbar (pts (xy 137.16 55.245) (xy 127.635 55.245)))
    (arrow1a (pts (xy 127.635 55.245) (xy 128.761504 54.658579)))
    (arrow1b (pts (xy 127.635 55.245) (xy 128.761504 55.831421)))
    (arrow2a (pts (xy 137.16 55.245) (xy 136.033496 54.658579)))
    (arrow2b (pts (xy 137.16 55.245) (xy 136.033496 55.831421)))
  )
  (dimension 3.175 (width 0.15) (layer Eco1.User)
    (gr_text "3,175 mm" (at 167.035 87.3125 270) (layer Eco1.User)
      (effects (font (size 1 1) (thickness 0.15)))
    )
    (feature1 (pts (xy 163.83 88.9) (xy 166.321421 88.9)))
    (feature2 (pts (xy 163.83 85.725) (xy 166.321421 85.725)))
    (crossbar (pts (xy 165.735 85.725) (xy 165.735 88.9)))
    (arrow1a (pts (xy 165.735 88.9) (xy 165.148579 87.773496)))
    (arrow1b (pts (xy 165.735 88.9) (xy 166.321421 87.773496)))
    (arrow2a (pts (xy 165.735 85.725) (xy 165.148579 86.851504)))
    (arrow2b (pts (xy 165.735 85.725) (xy 166.321421 86.851504)))
  )
  (dimension 3.175 (width 0.15) (layer Eco1.User)
    (gr_text "3,175 mm" (at 129.2225 92.105) (layer Eco1.User)
      (effects (font (size 1 1) (thickness 0.15)))
    )
    (feature1 (pts (xy 130.81 88.9) (xy 130.81 91.391421)))
    (feature2 (pts (xy 127.635 88.9) (xy 127.635 91.391421)))
    (crossbar (pts (xy 127.635 90.805) (xy 130.81 90.805)))
    (arrow1a (pts (xy 130.81 90.805) (xy 129.683496 91.391421)))
    (arrow1b (pts (xy 130.81 90.805) (xy 129.683496 90.218579)))
    (arrow2a (pts (xy 127.635 90.805) (xy 128.761504 91.391421)))
    (arrow2b (pts (xy 127.635 90.805) (xy 128.761504 90.218579)))
  )
  (dimension 11.43 (width 0.15) (layer Eco1.User)
    (gr_text "11,430 mm" (at 133.35 51.405001) (layer Eco1.User)
      (effects (font (size 1 1) (thickness 0.15)))
    )
    (feature1 (pts (xy 127.635 54.61) (xy 127.635 52.11858)))
    (feature2 (pts (xy 139.065 54.61) (xy 139.065 52.11858)))
    (crossbar (pts (xy 139.065 52.705001) (xy 127.635 52.705001)))
    (arrow1a (pts (xy 127.635 52.705001) (xy 128.761504 52.11858)))
    (arrow1b (pts (xy 127.635 52.705001) (xy 128.761504 53.291422)))
    (arrow2a (pts (xy 139.065 52.705001) (xy 137.938496 52.11858)))
    (arrow2b (pts (xy 139.065 52.705001) (xy 137.938496 53.291422)))
  )
  (dimension 30.48 (width 0.15) (layer Eco1.User)
    (gr_text "30,480 mm" (at 142.875 48.23) (layer Eco1.User)
      (effects (font (size 1 1) (thickness 0.15)))
    )
    (feature1 (pts (xy 127.635 50.8) (xy 127.635 48.943579)))
    (feature2 (pts (xy 158.115 50.8) (xy 158.115 48.943579)))
    (crossbar (pts (xy 158.115 49.53) (xy 127.635 49.53)))
    (arrow1a (pts (xy 127.635 49.53) (xy 128.761504 48.943579)))
    (arrow1b (pts (xy 127.635 49.53) (xy 128.761504 50.116421)))
    (arrow2a (pts (xy 158.115 49.53) (xy 156.988496 48.943579)))
    (arrow2b (pts (xy 158.115 49.53) (xy 156.988496 50.116421)))
  )
  (dimension 3.175 (width 0.15) (layer Eco1.User)
    (gr_text "3,175 mm" (at 156.5275 52.04) (layer Eco1.User)
      (effects (font (size 1 1) (thickness 0.15)))
    )
    (feature1 (pts (xy 154.94 54.61) (xy 154.94 52.753579)))
    (feature2 (pts (xy 158.115 54.61) (xy 158.115 52.753579)))
    (crossbar (pts (xy 158.115 53.34) (xy 154.94 53.34)))
    (arrow1a (pts (xy 154.94 53.34) (xy 156.066504 52.753579)))
    (arrow1b (pts (xy 154.94 53.34) (xy 156.066504 53.926421)))
    (arrow2a (pts (xy 158.115 53.34) (xy 156.988496 52.753579)))
    (arrow2b (pts (xy 158.115 53.34) (xy 156.988496 53.926421)))
  )
  (dimension 11.43 (width 0.15) (layer Eco1.User)
    (gr_text "11,430 mm" (at 144.78 51.405) (layer Eco1.User)
      (effects (font (size 1 1) (thickness 0.15)))
    )
    (feature1 (pts (xy 139.065 54.61) (xy 139.065 52.118579)))
    (feature2 (pts (xy 150.495 54.61) (xy 150.495 52.118579)))
    (crossbar (pts (xy 150.495 52.705) (xy 139.065 52.705)))
    (arrow1a (pts (xy 139.065 52.705) (xy 140.191504 52.118579)))
    (arrow1b (pts (xy 139.065 52.705) (xy 140.191504 53.291421)))
    (arrow2a (pts (xy 150.495 52.705) (xy 149.368496 52.118579)))
    (arrow2b (pts (xy 150.495 52.705) (xy 149.368496 53.291421)))
  )
  (dimension 1.905 (width 0.15) (layer Eco1.User)
    (gr_text "1,905 mm" (at 114.905 84.7725 90) (layer Eco1.User)
      (effects (font (size 1 1) (thickness 0.15)))
    )
    (feature1 (pts (xy 127.635 83.82) (xy 115.618579 83.82)))
    (feature2 (pts (xy 127.635 85.725) (xy 115.618579 85.725)))
    (crossbar (pts (xy 116.205 85.725) (xy 116.205 83.82)))
    (arrow1a (pts (xy 116.205 83.82) (xy 116.791421 84.946504)))
    (arrow1b (pts (xy 116.205 83.82) (xy 115.618579 84.946504)))
    (arrow2a (pts (xy 116.205 85.725) (xy 116.791421 84.598496)))
    (arrow2b (pts (xy 116.205 85.725) (xy 115.618579 84.598496)))
  )
  (dimension 1.27 (width 0.15) (layer Eco1.User)
    (gr_text "1,270 mm" (at 114.905 67.31 90) (layer Eco1.User)
      (effects (font (size 1 1) (thickness 0.15)))
    )
    (feature1 (pts (xy 124.46 66.675) (xy 115.618579 66.675)))
    (feature2 (pts (xy 124.46 67.945) (xy 115.618579 67.945)))
    (crossbar (pts (xy 116.205 67.945) (xy 116.205 66.675)))
    (arrow1a (pts (xy 116.205 66.675) (xy 116.791421 67.801504)))
    (arrow1b (pts (xy 116.205 66.675) (xy 115.618579 67.801504)))
    (arrow2a (pts (xy 116.205 67.945) (xy 116.791421 66.818496)))
    (arrow2b (pts (xy 116.205 67.945) (xy 115.618579 66.818496)))
  )
  (dimension 15.875 (width 0.15) (layer Eco1.User)
    (gr_text "15,875 mm" (at 120.62 75.8825 90) (layer Eco1.User)
      (effects (font (size 1 1) (thickness 0.15)))
    )
    (feature1 (pts (xy 126.365 67.945) (xy 121.333579 67.945)))
    (feature2 (pts (xy 126.365 83.82) (xy 121.333579 83.82)))
    (crossbar (pts (xy 121.92 83.82) (xy 121.92 67.945)))
    (arrow1a (pts (xy 121.92 67.945) (xy 122.506421 69.071504)))
    (arrow1b (pts (xy 121.92 67.945) (xy 121.333579 69.071504)))
    (arrow2a (pts (xy 121.92 83.82) (xy 122.506421 82.693496)))
    (arrow2b (pts (xy 121.92 83.82) (xy 121.333579 82.693496)))
  )
  (dimension 8.89 (width 0.15) (layer Eco1.User)
    (gr_text "8,890 mm" (at 120.62 62.23 90) (layer Eco1.User)
      (effects (font (size 1 1) (thickness 0.15)))
    )
    (feature1 (pts (xy 126.365 57.785) (xy 121.333579 57.785)))
    (feature2 (pts (xy 126.365 66.675) (xy 121.333579 66.675)))
    (crossbar (pts (xy 121.92 66.675) (xy 121.92 57.785)))
    (arrow1a (pts (xy 121.92 57.785) (xy 122.506421 58.911504)))
    (arrow1b (pts (xy 121.92 57.785) (xy 121.333579 58.911504)))
    (arrow2a (pts (xy 121.92 66.675) (xy 122.506421 65.548496)))
    (arrow2b (pts (xy 121.92 66.675) (xy 121.333579 65.548496)))
  )
  (dimension 3.175 (width 0.15) (layer Eco1.User)
    (gr_text "3,175 mm" (at 119.35 56.1975 90) (layer Eco1.User)
      (effects (font (size 1 1) (thickness 0.15)))
    )
    (feature1 (pts (xy 126.365 54.61) (xy 120.063579 54.61)))
    (feature2 (pts (xy 126.365 57.785) (xy 120.063579 57.785)))
    (crossbar (pts (xy 120.65 57.785) (xy 120.65 54.61)))
    (arrow1a (pts (xy 120.65 54.61) (xy 121.236421 55.736504)))
    (arrow1b (pts (xy 120.65 54.61) (xy 120.063579 55.736504)))
    (arrow2a (pts (xy 120.65 57.785) (xy 121.236421 56.658496)))
    (arrow2b (pts (xy 120.65 57.785) (xy 120.063579 56.658496)))
  )
  (dimension 34.29 (width 0.15) (layer Eco1.User)
    (gr_text "34,290 mm" (at 163.86 71.755 270) (layer Eco1.User)
      (effects (font (size 1 1) (thickness 0.15)))
    )
    (feature1 (pts (xy 158.115 88.9) (xy 163.146421 88.9)))
    (feature2 (pts (xy 158.115 54.61) (xy 163.146421 54.61)))
    (crossbar (pts (xy 162.56 54.61) (xy 162.56 88.9)))
    (arrow1a (pts (xy 162.56 88.9) (xy 161.973579 87.773496)))
    (arrow1b (pts (xy 162.56 88.9) (xy 163.146421 87.773496)))
    (arrow2a (pts (xy 162.56 54.61) (xy 161.973579 55.736504)))
    (arrow2b (pts (xy 162.56 54.61) (xy 163.146421 55.736504)))
  )
  (dimension 27.94 (width 0.15) (layer Eco1.User)
    (gr_text "27,940 mm" (at 160.685 71.755 270) (layer Eco1.User)
      (effects (font (size 1 1) (thickness 0.15)))
    )
    (feature1 (pts (xy 158.115 85.725) (xy 159.971421 85.725)))
    (feature2 (pts (xy 158.115 57.785) (xy 159.971421 57.785)))
    (crossbar (pts (xy 159.385 57.785) (xy 159.385 85.725)))
    (arrow1a (pts (xy 159.385 85.725) (xy 158.798579 84.598496)))
    (arrow1b (pts (xy 159.385 85.725) (xy 159.971421 84.598496)))
    (arrow2a (pts (xy 159.385 57.785) (xy 158.798579 58.911504)))
    (arrow2b (pts (xy 159.385 57.785) (xy 159.971421 58.911504)))
  )
  (gr_line (start 158.115 54.61) (end 127.635 54.61) (layer Edge.Cuts) (width 0.05))
  (gr_line (start 158.115 88.9) (end 158.115 54.61) (layer Edge.Cuts) (width 0.05))
  (gr_line (start 127.635 88.9) (end 158.115 88.9) (layer Edge.Cuts) (width 0.05))
  (gr_line (start 127.635 54.61) (end 127.635 88.9) (layer Edge.Cuts) (width 0.05))
  (target plus (at 127.635 54.61) (size 5) (width 0.05) (layer Edge.Cuts))

  (via (at 145.431482 86.822689) (size 0.8) (drill 0.4) (layers F.Cu B.Cu) (net 1))
  (segment (start 145.415 86.806207) (end 145.431482 86.822689) (width 0.75) (layer B.Cu) (net 1))
  (segment (start 145.415 83.755) (end 145.415 86.806207) (width 0.75) (layer B.Cu) (net 1))
  (segment (start 146.578794 87.970001) (end 149.519999 87.970001) (width 0.75) (layer F.Cu) (net 1))
  (segment (start 145.431482 86.822689) (end 146.578794 87.970001) (width 0.75) (layer F.Cu) (net 1))
  (segment (start 149.519999 87.970001) (end 151.765 85.725) (width 0.75) (layer F.Cu) (net 1))
  (segment (start 151.765 85.725) (end 151.765 85.09) (width 0.75) (layer F.Cu) (net 1))
  (segment (start 152.445 84.41) (end 153.67 84.41) (width 0.75) (layer F.Cu) (net 1))
  (segment (start 151.765 85.09) (end 152.445 84.41) (width 0.75) (layer F.Cu) (net 1))
  (via (at 143.51 75.565) (size 0.8) (drill 0.4) (layers F.Cu B.Cu) (net 2))
  (segment (start 142.11499 76.96001) (end 143.51 75.565) (width 0.75) (layer F.Cu) (net 2))
  (segment (start 142.11499 79.041734) (end 142.11499 76.96001) (width 0.75) (layer F.Cu) (net 2))
  (segment (start 143.083256 80.01) (end 142.11499 79.041734) (width 0.75) (layer F.Cu) (net 2))
  (segment (start 153.67 80.01) (end 143.083256 80.01) (width 0.75) (layer F.Cu) (net 2))
  (segment (start 143.51 78.17) (end 144.145 78.805) (width 0.75) (layer B.Cu) (net 2))
  (segment (start 143.51 75.565) (end 143.51 78.17) (width 0.75) (layer B.Cu) (net 2))
  (segment (start 148 78.15) (end 146.685 76.835) (width 0.75) (layer F.Cu) (net 3))
  (via (at 146.685 76.835) (size 0.8) (drill 0.4) (layers F.Cu B.Cu) (net 3))
  (segment (start 148.59 78.15) (end 148 78.15) (width 0.75) (layer F.Cu) (net 3))
  (segment (start 146.685 76.835) (end 146.685 78.805) (width 0.75) (layer B.Cu) (net 3))
  (via (at 144.78 76.2) (size 0.8) (drill 0.4) (layers F.Cu B.Cu) (net 4))
  (segment (start 145.415 76.835) (end 144.78 76.2) (width 0.75) (layer B.Cu) (net 4))
  (segment (start 145.415 78.805) (end 145.415 76.835) (width 0.75) (layer B.Cu) (net 4))
  (segment (start 144.78 76.2) (end 144.145 76.835) (width 0.75) (layer F.Cu) (net 4))
  (segment (start 144.19 76.88) (end 144.19 78.15) (width 0.75) (layer F.Cu) (net 4))
  (segment (start 144.145 76.835) (end 144.19 76.88) (width 0.75) (layer F.Cu) (net 4))
  (via (at 146.05 70.485) (size 0.8) (drill 0.4) (layers F.Cu B.Cu) (net 5))
  (segment (start 147.385 70.485) (end 146.05 70.485) (width 0.75) (layer B.Cu) (net 5))
  (segment (start 147.025 70.485) (end 150.2 73.66) (width 0.75) (layer F.Cu) (net 5))
  (segment (start 146.05 70.485) (end 147.025 70.485) (width 0.75) (layer F.Cu) (net 5))
  (segment (start 152.335 69.215) (end 154.94 69.215) (width 0.75) (layer B.Cu) (net 6))
  (via (at 155.575 69.85) (size 0.8) (drill 0.4) (layers F.Cu B.Cu) (net 6))
  (segment (start 154.94 69.215) (end 155.575 69.85) (width 0.75) (layer B.Cu) (net 6))
  (segment (start 155.575 72.685) (end 154.6 73.66) (width 0.75) (layer F.Cu) (net 6))
  (segment (start 155.575 69.85) (end 155.575 72.685) (width 0.75) (layer F.Cu) (net 6))
  (segment (start 152.335 71.755) (end 151.203516 71.755) (width 0.75) (layer B.Cu) (net 7))
  (via (at 150.495 69.215) (size 0.8) (drill 0.4) (layers F.Cu B.Cu) (net 7))
  (segment (start 150.495 71.046484) (end 150.495 69.215) (width 0.75) (layer B.Cu) (net 7))
  (segment (start 151.203516 71.755) (end 150.495 71.046484) (width 0.75) (layer B.Cu) (net 7))
  (segment (start 150.495 67.945) (end 151.13 67.31) (width 0.75) (layer F.Cu) (net 7))
  (segment (start 150.495 69.215) (end 150.495 67.945) (width 0.75) (layer F.Cu) (net 7))
  (segment (start 152.335 70.485) (end 154.305 70.485) (width 0.75) (layer B.Cu) (net 8))
  (segment (start 154.305 70.485) (end 154.94 71.12) (width 0.75) (layer B.Cu) (net 8))
  (segment (start 154.94 71.12) (end 156.21 71.12) (width 0.75) (layer B.Cu) (net 8))
  (via (at 156.845 69.215) (size 0.8) (drill 0.4) (layers F.Cu B.Cu) (net 8))
  (segment (start 156.845 70.485) (end 156.845 69.215) (width 0.75) (layer B.Cu) (net 8))
  (segment (start 156.21 71.12) (end 156.845 70.485) (width 0.75) (layer B.Cu) (net 8))
  (segment (start 156.845 68.625) (end 155.53 67.31) (width 0.75) (layer F.Cu) (net 8))
  (segment (start 156.845 69.215) (end 156.845 68.625) (width 0.75) (layer F.Cu) (net 8))
  (via (at 146.685 74.295) (size 0.8) (drill 0.4) (layers F.Cu B.Cu) (net 9))
  (segment (start 147.385 73.595) (end 146.685 74.295) (width 0.75) (layer B.Cu) (net 9))
  (segment (start 147.385 73.025) (end 147.385 73.595) (width 0.75) (layer B.Cu) (net 9))
  (segment (start 146.095 74.295) (end 144.78 72.98) (width 0.75) (layer F.Cu) (net 9))
  (segment (start 146.685 74.295) (end 146.095 74.295) (width 0.75) (layer F.Cu) (net 9))
  (via (at 140.335 69.85) (size 0.8) (drill 0.4) (layers F.Cu B.Cu) (net 9))
  (segment (start 143.465 72.98) (end 140.335 69.85) (width 0.75) (layer F.Cu) (net 9))
  (segment (start 144.78 72.98) (end 143.465 72.98) (width 0.75) (layer F.Cu) (net 9))
  (via (at 137.16 78.105) (size 0.8) (drill 0.4) (layers F.Cu B.Cu) (net 9))
  (segment (start 137.16 72.459315) (end 137.16 78.105) (width 0.75) (layer F.Cu) (net 9))
  (segment (start 139.769315 69.85) (end 137.16 72.459315) (width 0.75) (layer F.Cu) (net 9))
  (segment (start 140.335 69.85) (end 139.769315 69.85) (width 0.75) (layer F.Cu) (net 9))
  (via (at 142.24 68.58) (size 0.8) (drill 0.4) (layers F.Cu B.Cu) (net 10))
  (segment (start 140.97 67.31) (end 142.24 68.58) (width 0.75) (layer B.Cu) (net 10))
  (segment (start 142.24 68.58) (end 144.78 68.58) (width 0.75) (layer F.Cu) (net 10))
  (segment (start 152.335 73.025) (end 151.13 73.025) (width 0.75) (layer B.Cu) (net 10))
  (segment (start 151.13 73.025) (end 147.955 76.2) (width 0.75) (layer B.Cu) (net 10))
  (segment (start 147.955 76.2) (end 147.955 78.805) (width 0.75) (layer B.Cu) (net 10))
  (via (at 149.225 69.85) (size 0.8) (drill 0.4) (layers F.Cu B.Cu) (net 10))
  (segment (start 144.78 68.58) (end 147.955 68.58) (width 0.75) (layer F.Cu) (net 10))
  (segment (start 147.955 68.58) (end 149.225 69.85) (width 0.75) (layer F.Cu) (net 10))
  (segment (start 151.13 73.025) (end 149.225 71.12) (width 0.75) (layer B.Cu) (net 10))
  (segment (start 149.225 71.12) (end 149.225 69.85) (width 0.75) (layer B.Cu) (net 10))
  (segment (start 140.97 64.135) (end 140.97 66.04) (width 0.75) (layer B.Cu) (net 10))
  (segment (start 140.97 66.04) (end 140.97 67.31) (width 0.75) (layer B.Cu) (net 10))
  (segment (start 140.97 64.77) (end 140.97 66.04) (width 0.75) (layer B.Cu) (net 10))
  (segment (start 137.16 59.69) (end 143.51 59.69) (width 1) (layer B.Cu) (net 11))
  (segment (start 146.05 62.23) (end 146.05 64.77) (width 1) (layer B.Cu) (net 11))
  (segment (start 143.51 59.69) (end 146.05 62.23) (width 1) (layer B.Cu) (net 11))
  (segment (start 146.05 64.77) (end 146.05 66.04) (width 1) (layer B.Cu) (net 11))
  (segment (start 146.05 66.04) (end 144.78 67.31) (width 1) (layer B.Cu) (net 11))
  (segment (start 144.78 67.31) (end 144.78 71.12) (width 1) (layer B.Cu) (net 11))
  (segment (start 145.415 71.755) (end 147.385 71.755) (width 0.75) (layer B.Cu) (net 11))
  (segment (start 146.05 81.28) (end 143.51 81.28) (width 0.75) (layer B.Cu) (net 11))
  (segment (start 146.685 81.915) (end 146.05 81.28) (width 0.75) (layer B.Cu) (net 11))
  (segment (start 146.685 83.755) (end 146.685 81.915) (width 0.75) (layer B.Cu) (net 11))
  (segment (start 145.0975 71.4375) (end 144.78 71.12) (width 0.75) (layer B.Cu) (net 11))
  (segment (start 145.415 71.755) (end 145.0975 71.4375) (width 0.75) (layer B.Cu) (net 11))
  (segment (start 145.0975 71.4375) (end 142.24 74.295) (width 1) (layer B.Cu) (net 11))
  (segment (start 142.24 74.295) (end 142.24 80.01) (width 1) (layer B.Cu) (net 11))
  (segment (start 145.7325 80.9625) (end 146.05 81.28) (width 1) (layer B.Cu) (net 11))
  (segment (start 143.1925 80.9625) (end 145.7325 80.9625) (width 1) (layer B.Cu) (net 11))
  (segment (start 142.24 80.01) (end 143.1925 80.9625) (width 1) (layer B.Cu) (net 11))
  (segment (start 143.1925 80.9625) (end 143.51 81.28) (width 1) (layer B.Cu) (net 11))
  (segment (start 145.7325 80.9625) (end 146.685 81.915) (width 1) (layer B.Cu) (net 11))
  (via (at 147.955 86.995) (size 0.8) (drill 0.4) (layers F.Cu B.Cu) (net 11))
  (segment (start 146.685 85.725) (end 147.955 86.995) (width 0.75) (layer B.Cu) (net 11))
  (segment (start 146.685 83.755) (end 146.685 85.725) (width 0.75) (layer B.Cu) (net 11))
  (segment (start 147.955 85.385) (end 148.25 85.09) (width 0.75) (layer F.Cu) (net 11))
  (segment (start 147.955 86.995) (end 147.955 85.385) (width 0.75) (layer F.Cu) (net 11))
  (segment (start 148.59 64.77) (end 148.59 66.04) (width 0.75) (layer B.Cu) (net 12))
  (segment (start 147.385 67.245) (end 147.385 69.215) (width 0.75) (layer B.Cu) (net 12))
  (segment (start 148.59 66.04) (end 147.385 67.245) (width 0.75) (layer B.Cu) (net 12))
  (via (at 142.24 83.185) (size 0.8) (drill 0.4) (layers F.Cu B.Cu) (net 12))
  (segment (start 143.85 84.795) (end 142.24 83.185) (width 0.75) (layer F.Cu) (net 12))
  (segment (start 143.85 85.09) (end 143.85 84.795) (width 0.75) (layer F.Cu) (net 12))
  (segment (start 143.575 83.185) (end 144.145 83.755) (width 0.75) (layer B.Cu) (net 12))
  (segment (start 142.24 83.185) (end 143.575 83.185) (width 0.75) (layer B.Cu) (net 12))
  (via (at 151.13 81.915) (size 0.8) (drill 0.4) (layers F.Cu B.Cu) (net 12))
  (segment (start 149.86 83.185) (end 151.13 81.915) (width 0.75) (layer F.Cu) (net 12))
  (segment (start 142.24 83.185) (end 149.86 83.185) (width 0.75) (layer F.Cu) (net 12))
  (via (at 151.13 75.565) (size 0.8) (drill 0.4) (layers F.Cu B.Cu) (net 12))
  (segment (start 151.13 81.915) (end 151.13 75.565) (width 0.75) (layer B.Cu) (net 12))
  (segment (start 151.13 75.565) (end 151.765 75.565) (width 0.75) (layer F.Cu) (net 12))
  (segment (start 151.765 75.565) (end 152.4 74.93) (width 0.75) (layer F.Cu) (net 12))
  (segment (start 152.4 74.93) (end 152.4 70.485) (width 0.75) (layer F.Cu) (net 12))
  (segment (start 153.20501 69.67999) (end 153.20501 65.57501) (width 0.75) (layer F.Cu) (net 12))
  (segment (start 152.4 70.485) (end 153.20501 69.67999) (width 0.75) (layer F.Cu) (net 12))
  (via (at 151.13 64.77) (size 0.8) (drill 0.4) (layers F.Cu B.Cu) (net 12))
  (segment (start 152.4 64.77) (end 151.13 64.77) (width 0.75) (layer F.Cu) (net 12))
  (segment (start 153.20501 65.57501) (end 152.4 64.77) (width 0.75) (layer F.Cu) (net 12))
  (segment (start 148.59 64.135) (end 149.225 64.135) (width 0.75) (layer B.Cu) (net 12))
  (segment (start 149.86 64.77) (end 148.59 64.77) (width 0.75) (layer B.Cu) (net 12))
  (segment (start 149.225 64.135) (end 149.86 64.77) (width 0.75) (layer B.Cu) (net 12))
  (segment (start 151.13 64.77) (end 149.86 64.77) (width 0.75) (layer B.Cu) (net 12))
  (segment (start 135.255 62.23) (end 137.16 62.23) (width 1) (layer B.Cu) (net 13))
  (segment (start 133.985 63.5) (end 135.255 62.23) (width 1) (layer B.Cu) (net 13))
  (segment (start 133.985 71.12) (end 133.985 63.5) (width 1) (layer B.Cu) (net 13))
  (segment (start 135.345 72.48) (end 133.985 71.12) (width 1) (layer B.Cu) (net 13))
  (segment (start 139.87 72.48) (end 135.345 72.48) (width 1) (layer B.Cu) (net 13))

  (zone (net 9) (net_name GND) (layer B.Cu) (tstamp 61822D5A) (hatch edge 0.508)
    (connect_pads (clearance 0.508))
    (min_thickness 0.254)
    (fill yes (arc_segments 32) (thermal_gap 0.508) (thermal_bridge_width 0.508) (smoothing chamfer))
    (polygon
      (pts
        (xy 158.115 88.9) (xy 127.635 88.9) (xy 127.635 54.61) (xy 158.115 54.61)
      )
    )
    (filled_polygon
      (pts
        (xy 157.455001 68.377806) (xy 157.335256 68.297795) (xy 157.146898 68.219774) (xy 156.946939 68.18) (xy 156.743061 68.18)
        (xy 156.543102 68.219774) (xy 156.354744 68.297795) (xy 156.185226 68.411063) (xy 156.041063 68.555226) (xy 155.927795 68.724744)
        (xy 155.913239 68.759884) (xy 155.689261 68.535906) (xy 155.657633 68.497367) (xy 155.50384 68.371153) (xy 155.32838 68.277368)
        (xy 155.137994 68.219615) (xy 154.989608 68.205) (xy 154.94 68.200114) (xy 154.890392 68.205) (xy 152.285392 68.205)
        (xy 152.137006 68.219615) (xy 151.94807 68.276928) (xy 151.51 68.276928) (xy 151.356255 68.292071) (xy 151.208418 68.336916)
        (xy 151.116964 68.385799) (xy 150.985256 68.297795) (xy 150.796898 68.219774) (xy 150.596939 68.18) (xy 150.393061 68.18)
        (xy 150.193102 68.219774) (xy 150.004744 68.297795) (xy 149.835226 68.411063) (xy 149.691063 68.555226) (xy 149.577795 68.724744)
        (xy 149.52416 68.854229) (xy 149.326939 68.815) (xy 149.123061 68.815) (xy 148.963367 68.846765) (xy 148.938084 68.763418)
        (xy 148.865258 68.627171) (xy 148.767251 68.507749) (xy 148.647829 68.409742) (xy 148.511582 68.336916) (xy 148.395 68.301552)
        (xy 148.395 67.663355) (xy 149.269094 66.789261) (xy 149.307633 66.757633) (xy 149.433847 66.60384) (xy 149.527632 66.42838)
        (xy 149.585385 66.237994) (xy 149.6 66.089608) (xy 149.6 66.089606) (xy 149.604886 66.040001) (xy 149.6 65.990392)
        (xy 149.6 65.78) (xy 149.810392 65.78) (xy 149.86 65.784886) (xy 149.909608 65.78) (xy 150.902377 65.78)
        (xy 151.028061 65.805) (xy 151.231939 65.805) (xy 151.431898 65.765226) (xy 151.620256 65.687205) (xy 151.789774 65.573937)
        (xy 151.933937 65.429774) (xy 152.047205 65.260256) (xy 152.125226 65.071898) (xy 152.165 64.871939) (xy 152.165 64.668061)
        (xy 152.125226 64.468102) (xy 152.047205 64.279744) (xy 151.933937 64.110226) (xy 151.789774 63.966063) (xy 151.620256 63.852795)
        (xy 151.431898 63.774774) (xy 151.231939 63.735) (xy 151.028061 63.735) (xy 150.902377 63.76) (xy 150.278355 63.76)
        (xy 150.078072 63.559717) (xy 150.078072 63.285) (xy 150.065812 63.160518) (xy 150.029502 63.04082) (xy 149.970537 62.930506)
        (xy 149.891185 62.833815) (xy 149.794494 62.754463) (xy 149.68418 62.695498) (xy 149.564482 62.659188) (xy 149.44 62.646928)
        (xy 147.74 62.646928) (xy 147.615518 62.659188) (xy 147.49582 62.695498) (xy 147.385506 62.754463) (xy 147.288815 62.833815)
        (xy 147.209463 62.930506) (xy 147.185 62.976272) (xy 147.185 62.285741) (xy 147.19049 62.229999) (xy 147.185 62.174257)
        (xy 147.185 62.174248) (xy 147.168577 62.007501) (xy 147.103676 61.793553) (xy 146.998284 61.596377) (xy 146.856449 61.423551)
        (xy 146.813141 61.388009) (xy 144.351996 58.926865) (xy 144.316449 58.883551) (xy 144.143623 58.741716) (xy 143.946447 58.636324)
        (xy 143.732499 58.571423) (xy 143.565752 58.555) (xy 143.565751 58.555) (xy 143.51 58.549509) (xy 143.454249 58.555)
        (xy 138.125107 58.555) (xy 138.106632 58.536525) (xy 137.863411 58.37401) (xy 137.593158 58.262068) (xy 137.30626 58.205)
        (xy 137.01374 58.205) (xy 136.726842 58.262068) (xy 136.456589 58.37401) (xy 136.213368 58.536525) (xy 136.006525 58.743368)
        (xy 135.84401 58.986589) (xy 135.732068 59.256842) (xy 135.675 59.54374) (xy 135.675 59.83626) (xy 135.732068 60.123158)
        (xy 135.84401 60.393411) (xy 136.006525 60.636632) (xy 136.213368 60.843475) (xy 136.38776 60.96) (xy 136.213368 61.076525)
        (xy 136.194893 61.095) (xy 135.310743 61.095) (xy 135.254999 61.08951) (xy 135.199255 61.095) (xy 135.199248 61.095)
        (xy 135.053493 61.109356) (xy 135.0325 61.111423) (xy 134.982705 61.126529) (xy 134.818553 61.176324) (xy 134.621377 61.281716)
        (xy 134.448551 61.423551) (xy 134.413008 61.46686) (xy 133.22186 62.658009) (xy 133.178552 62.693551) (xy 133.036717 62.866377)
        (xy 133.00244 62.930506) (xy 132.931324 63.063554) (xy 132.866423 63.277502) (xy 132.844509 63.5) (xy 132.850001 63.555761)
        (xy 132.85 71.064248) (xy 132.844509 71.12) (xy 132.85 71.175751) (xy 132.866423 71.342498) (xy 132.931324 71.556446)
        (xy 133.036716 71.753623) (xy 133.178551 71.926449) (xy 133.221865 71.961996) (xy 134.503008 73.24314) (xy 134.538551 73.286449)
        (xy 134.711377 73.428284) (xy 134.908553 73.533676) (xy 135.122501 73.598577) (xy 135.289248 73.615) (xy 135.289257 73.615)
        (xy 135.344999 73.62049) (xy 135.400741 73.615) (xy 138.529043 73.615) (xy 138.539463 73.634494) (xy 138.618815 73.731185)
        (xy 138.715506 73.810537) (xy 138.82582 73.869502) (xy 138.921943 73.898661) (xy 138.755363 74.065241) (xy 138.59832 74.300273)
        (xy 138.490147 74.561426) (xy 138.435 74.838665) (xy 138.435 75.121335) (xy 138.490147 75.398574) (xy 138.59832 75.659727)
        (xy 138.755363 75.894759) (xy 138.840604 75.98) (xy 138.755363 76.065241) (xy 138.59832 76.300273) (xy 138.490147 76.561426)
        (xy 138.435 76.838665) (xy 138.435 77.121335) (xy 138.490147 77.398574) (xy 138.59832 77.659727) (xy 138.755363 77.894759)
        (xy 138.955241 78.094637) (xy 139.155869 78.228692) (xy 139.128486 78.243329) (xy 139.056903 78.487298) (xy 139.87 79.300395)
        (xy 140.683097 78.487298) (xy 140.611514 78.243329) (xy 140.582659 78.229676) (xy 140.784759 78.094637) (xy 140.984637 77.894759)
        (xy 141.105001 77.714622) (xy 141.105001 78.737996) (xy 140.862702 78.666903) (xy 140.049605 79.48) (xy 140.862702 80.293097)
        (xy 141.106671 80.221514) (xy 141.117986 80.197601) (xy 141.121423 80.232498) (xy 141.186324 80.446446) (xy 141.231382 80.530744)
        (xy 141.291717 80.643623) (xy 141.433552 80.816449) (xy 141.47686 80.851991) (xy 142.350508 81.72564) (xy 142.386051 81.768949)
        (xy 142.429365 81.804496) (xy 142.746857 82.121988) (xy 142.811452 82.175) (xy 142.467623 82.175) (xy 142.341939 82.15)
        (xy 142.138061 82.15) (xy 141.938102 82.189774) (xy 141.749744 82.267795) (xy 141.580226 82.381063) (xy 141.436063 82.525226)
        (xy 141.322795 82.694744) (xy 141.244774 82.883102) (xy 141.205 83.083061) (xy 141.205 83.286939) (xy 141.244774 83.486898)
        (xy 141.322795 83.675256) (xy 141.436063 83.844774) (xy 141.580226 83.988937) (xy 141.749744 84.102205) (xy 141.938102 84.180226)
        (xy 142.138061 84.22) (xy 142.341939 84.22) (xy 142.467623 84.195) (xy 143.156645 84.195) (xy 143.206928 84.245283)
        (xy 143.206928 84.58) (xy 143.222071 84.733745) (xy 143.266916 84.881582) (xy 143.339742 85.017829) (xy 143.437749 85.137251)
        (xy 143.557171 85.235258) (xy 143.693418 85.308084) (xy 143.841255 85.352929) (xy 143.995 85.368072) (xy 144.295 85.368072)
        (xy 144.405001 85.357238) (xy 144.405001 86.677922) (xy 144.396482 86.72075) (xy 144.396482 86.924628) (xy 144.436256 87.124587)
        (xy 144.514277 87.312945) (xy 144.627545 87.482463) (xy 144.771708 87.626626) (xy 144.941226 87.739894) (xy 145.129584 87.817915)
        (xy 145.329543 87.857689) (xy 145.533421 87.857689) (xy 145.73338 87.817915) (xy 145.921738 87.739894) (xy 146.091256 87.626626)
        (xy 146.235419 87.482463) (xy 146.348687 87.312945) (xy 146.426708 87.124587) (xy 146.464788 86.933143) (xy 147.079868 87.548223)
        (xy 147.151063 87.654774) (xy 147.295226 87.798937) (xy 147.464744 87.912205) (xy 147.653102 87.990226) (xy 147.853061 88.03)
        (xy 148.056939 88.03) (xy 148.256898 87.990226) (xy 148.445256 87.912205) (xy 148.614774 87.798937) (xy 148.758937 87.654774)
        (xy 148.872205 87.485256) (xy 148.950226 87.296898) (xy 148.99 87.096939) (xy 148.99 86.893061) (xy 148.950226 86.693102)
        (xy 148.872205 86.504744) (xy 148.758937 86.335226) (xy 148.614774 86.191063) (xy 148.508223 86.119868) (xy 147.711303 85.322948)
        (xy 147.828 85.20625) (xy 147.828 83.882) (xy 148.082 83.882) (xy 148.082 85.20625) (xy 148.24075 85.365)
        (xy 148.255 85.368072) (xy 148.379482 85.355812) (xy 148.49918 85.319502) (xy 148.609494 85.260537) (xy 148.706185 85.181185)
        (xy 148.785537 85.084494) (xy 148.844502 84.97418) (xy 148.880812 84.854482) (xy 148.893072 84.73) (xy 148.89 84.04075)
        (xy 148.73125 83.882) (xy 148.082 83.882) (xy 147.828 83.882) (xy 147.808 83.882) (xy 147.808 83.628)
        (xy 147.828 83.628) (xy 147.828 82.30375) (xy 148.082 82.30375) (xy 148.082 83.628) (xy 148.73125 83.628)
        (xy 148.89 83.46925) (xy 148.893072 82.78) (xy 148.880812 82.655518) (xy 148.844502 82.53582) (xy 148.785537 82.425506)
        (xy 148.706185 82.328815) (xy 148.609494 82.249463) (xy 148.49918 82.190498) (xy 148.379482 82.154188) (xy 148.255 82.141928)
        (xy 148.24075 82.145) (xy 148.082 82.30375) (xy 147.828 82.30375) (xy 147.770566 82.246316) (xy 147.803576 82.137498)
        (xy 147.82549 81.914999) (xy 147.803576 81.6925) (xy 147.738675 81.478552) (xy 147.633283 81.281376) (xy 147.526988 81.151856)
        (xy 146.793203 80.418072) (xy 146.835 80.418072) (xy 146.988745 80.402929) (xy 147.136582 80.358084) (xy 147.272829 80.285258)
        (xy 147.32 80.246546) (xy 147.367171 80.285258) (xy 147.503418 80.358084) (xy 147.651255 80.402929) (xy 147.805 80.418072)
        (xy 148.105 80.418072) (xy 148.258745 80.402929) (xy 148.406582 80.358084) (xy 148.542829 80.285258) (xy 148.662251 80.187251)
        (xy 148.760258 80.067829) (xy 148.833084 79.931582) (xy 148.877929 79.783745) (xy 148.893072 79.63) (xy 148.893072 79.19193)
        (xy 148.950385 79.002994) (xy 148.965 78.854608) (xy 148.965 76.618355) (xy 150.095 75.488355) (xy 150.095 75.666939)
        (xy 150.120001 75.792628) (xy 150.12 81.687376) (xy 150.095 81.813061) (xy 150.095 82.016939) (xy 150.134774 82.216898)
        (xy 150.212795 82.405256) (xy 150.326063 82.574774) (xy 150.470226 82.718937) (xy 150.639744 82.832205) (xy 150.828102 82.910226)
        (xy 151.028061 82.95) (xy 151.231939 82.95) (xy 151.431898 82.910226) (xy 151.620256 82.832205) (xy 151.789774 82.718937)
        (xy 151.933937 82.574774) (xy 152.047205 82.405256) (xy 152.125226 82.216898) (xy 152.165 82.016939) (xy 152.165 81.813061)
        (xy 152.14 81.687377) (xy 152.14 75.792623) (xy 152.165 75.666939) (xy 152.165 75.463061) (xy 152.125226 75.263102)
        (xy 152.047205 75.074744) (xy 151.933937 74.905226) (xy 151.789774 74.761063) (xy 151.620256 74.647795) (xy 151.431898 74.569774)
        (xy 151.231939 74.53) (xy 151.053355 74.53) (xy 151.548355 74.035) (xy 152.384608 74.035) (xy 152.532994 74.020385)
        (xy 152.72193 73.963072) (xy 153.16 73.963072) (xy 153.313745 73.947929) (xy 153.461582 73.903084) (xy 153.597829 73.830258)
        (xy 153.717251 73.732251) (xy 153.815258 73.612829) (xy 153.888084 73.476582) (xy 153.932929 73.328745) (xy 153.948072 73.175)
        (xy 153.948072 72.875) (xy 153.932929 72.721255) (xy 153.888084 72.573418) (xy 153.815258 72.437171) (xy 153.776546 72.39)
        (xy 153.815258 72.342829) (xy 153.888084 72.206582) (xy 153.932929 72.058745) (xy 153.948072 71.905) (xy 153.948072 71.605)
        (xy 153.942765 71.55112) (xy 154.190739 71.799094) (xy 154.222367 71.837633) (xy 154.37616 71.963847) (xy 154.525278 72.043552)
        (xy 154.55162 72.057632) (xy 154.742005 72.115385) (xy 154.94 72.134886) (xy 154.989608 72.13) (xy 156.160392 72.13)
        (xy 156.21 72.134886) (xy 156.407994 72.115385) (xy 156.491677 72.09) (xy 156.59838 72.057632) (xy 156.77384 71.963847)
        (xy 156.927633 71.837633) (xy 156.959261 71.799094) (xy 157.455001 71.303354) (xy 157.455 88.24) (xy 128.295 88.24)
        (xy 128.295 85.499849) (xy 128.524 85.499849) (xy 128.524 85.950151) (xy 128.61185 86.391802) (xy 128.784173 86.807827)
        (xy 129.034348 87.18224) (xy 129.35276 87.500652) (xy 129.727173 87.750827) (xy 130.143198 87.92315) (xy 130.584849 88.011)
        (xy 131.035151 88.011) (xy 131.476802 87.92315) (xy 131.892827 87.750827) (xy 132.26724 87.500652) (xy 132.585652 87.18224)
        (xy 132.835827 86.807827) (xy 133.00815 86.391802) (xy 133.096 85.950151) (xy 133.096 85.499849) (xy 133.00815 85.058198)
        (xy 132.835827 84.642173) (xy 132.585652 84.26776) (xy 132.359545 84.041653) (xy 135.847952 84.041653) (xy 136.003962 84.357214)
        (xy 136.378745 84.54802) (xy 136.783551 84.662044) (xy 137.202824 84.694902) (xy 137.620451 84.645334) (xy 138.020383 84.515243)
        (xy 138.316038 84.357214) (xy 138.472048 84.041653) (xy 137.16 82.729605) (xy 135.847952 84.041653) (xy 132.359545 84.041653)
        (xy 132.26724 83.949348) (xy 131.892827 83.699173) (xy 131.476802 83.52685) (xy 131.035151 83.439) (xy 130.584849 83.439)
        (xy 130.143198 83.52685) (xy 129.727173 83.699173) (xy 129.35276 83.949348) (xy 129.034348 84.26776) (xy 128.784173 84.642173)
        (xy 128.61185 85.058198) (xy 128.524 85.499849) (xy 128.295 85.499849) (xy 128.295 82.592824) (xy 135.015098 82.592824)
        (xy 135.064666 83.010451) (xy 135.194757 83.410383) (xy 135.352786 83.706038) (xy 135.668347 83.862048) (xy 136.980395 82.55)
        (xy 137.339605 82.55) (xy 138.651653 83.862048) (xy 138.967214 83.706038) (xy 139.15802 83.331255) (xy 139.272044 82.926449)
        (xy 139.304902 82.507176) (xy 139.255334 82.089549) (xy 139.125243 81.689617) (xy 138.967214 81.393962) (xy 138.651653 81.237952)
        (xy 137.339605 82.55) (xy 136.980395 82.55) (xy 135.668347 81.237952) (xy 135.352786 81.393962) (xy 135.16198 81.768745)
        (xy 135.047956 82.173551) (xy 135.015098 82.592824) (xy 128.295 82.592824) (xy 128.295 81.058347) (xy 135.847952 81.058347)
        (xy 137.16 82.370395) (xy 138.472048 81.058347) (xy 138.316038 80.742786) (xy 137.941255 80.55198) (xy 137.659804 80.472702)
        (xy 139.056903 80.472702) (xy 139.128486 80.716671) (xy 139.383996 80.837571) (xy 139.658184 80.9063) (xy 139.940512 80.920217)
        (xy 140.22013 80.878787) (xy 140.486292 80.783603) (xy 140.611514 80.716671) (xy 140.683097 80.472702) (xy 139.87 79.659605)
        (xy 139.056903 80.472702) (xy 137.659804 80.472702) (xy 137.536449 80.437956) (xy 137.117176 80.405098) (xy 136.699549 80.454666)
        (xy 136.299617 80.584757) (xy 136.003962 80.742786) (xy 135.847952 81.058347) (xy 128.295 81.058347) (xy 128.295 79.550512)
        (xy 138.429783 79.550512) (xy 138.471213 79.83013) (xy 138.566397 80.096292) (xy 138.633329 80.221514) (xy 138.877298 80.293097)
        (xy 139.690395 79.48) (xy 138.877298 78.666903) (xy 138.633329 78.738486) (xy 138.512429 78.993996) (xy 138.4437 79.268184)
        (xy 138.429783 79.550512) (xy 128.295 79.550512) (xy 128.295 57.559849) (xy 152.654 57.559849) (xy 152.654 58.010151)
        (xy 152.74185 58.451802) (xy 152.914173 58.867827) (xy 153.164348 59.24224) (xy 153.48276 59.560652) (xy 153.857173 59.810827)
        (xy 154.273198 59.98315) (xy 154.714849 60.071) (xy 155.165151 60.071) (xy 155.606802 59.98315) (xy 156.022827 59.810827)
        (xy 156.39724 59.560652) (xy 156.715652 59.24224) (xy 156.965827 58.867827) (xy 157.13815 58.451802) (xy 157.226 58.010151)
        (xy 157.226 57.559849) (xy 157.13815 57.118198) (xy 156.965827 56.702173) (xy 156.715652 56.32776) (xy 156.39724 56.009348)
        (xy 156.022827 55.759173) (xy 155.606802 55.58685) (xy 155.165151 55.499) (xy 154.714849 55.499) (xy 154.273198 55.58685)
        (xy 153.857173 55.759173) (xy 153.48276 56.009348) (xy 153.164348 56.32776) (xy 152.914173 56.702173) (xy 152.74185 57.118198)
        (xy 152.654 57.559849) (xy 128.295 57.559849) (xy 128.295 55.27) (xy 157.455001 55.27)
      )
    )
    (filled_polygon
      (pts
        (xy 149.701645 73.025) (xy 147.275906 75.450739) (xy 147.237367 75.482367) (xy 147.111153 75.63616) (xy 147.017369 75.81162)
        (xy 147.017368 75.811621) (xy 147.00638 75.847844) (xy 146.986898 75.839774) (xy 146.786939 75.8) (xy 146.583061 75.8)
        (xy 146.383102 75.839774) (xy 146.194744 75.917795) (xy 146.033733 76.025378) (xy 145.655132 75.646777) (xy 145.583937 75.540226)
        (xy 145.439774 75.396063) (xy 145.270256 75.282795) (xy 145.081898 75.204774) (xy 144.881939 75.165) (xy 144.678061 75.165)
        (xy 144.48084 75.204229) (xy 144.427205 75.074744) (xy 144.313937 74.905226) (xy 144.169774 74.761063) (xy 144.000256 74.647795)
        (xy 143.811898 74.569774) (xy 143.611939 74.53) (xy 143.610131 74.53) (xy 144.815131 73.325) (xy 145.771928 73.325)
        (xy 145.784188 73.449482) (xy 145.820498 73.56918) (xy 145.879463 73.679494) (xy 145.958815 73.776185) (xy 146.055506 73.855537)
        (xy 146.16582 73.914502) (xy 146.285518 73.950812) (xy 146.41 73.963072) (xy 147.09925 73.96) (xy 147.258 73.80125)
        (xy 147.258 73.152) (xy 147.512 73.152) (xy 147.512 73.80125) (xy 147.67075 73.96) (xy 148.36 73.963072)
        (xy 148.484482 73.950812) (xy 148.60418 73.914502) (xy 148.714494 73.855537) (xy 148.811185 73.776185) (xy 148.890537 73.679494)
        (xy 148.949502 73.56918) (xy 148.985812 73.449482) (xy 148.998072 73.325) (xy 148.995 73.31075) (xy 148.83625 73.152)
        (xy 147.512 73.152) (xy 147.258 73.152) (xy 145.93375 73.152) (xy 145.775 73.31075) (xy 145.771928 73.325)
        (xy 144.815131 73.325) (xy 145.374259 72.765873) (xy 145.415 72.769886) (xy 145.464608 72.765) (xy 145.80075 72.765)
        (xy 145.93375 72.898) (xy 147.258 72.898) (xy 147.258 72.878) (xy 147.512 72.878) (xy 147.512 72.898)
        (xy 148.83625 72.898) (xy 148.995 72.73925) (xy 148.998072 72.725) (xy 148.985812 72.600518) (xy 148.949502 72.48082)
        (xy 148.890537 72.370506) (xy 148.86627 72.340936) (xy 148.918976 72.242331)
      )
    )
    (filled_polygon
      (pts
        (xy 144.915 62.700132) (xy 144.915 63.169893) (xy 144.896525 63.188368) (xy 144.774805 63.370534) (xy 144.705178 63.253645)
        (xy 144.510269 63.037412) (xy 144.27692 62.863359) (xy 144.014099 62.738175) (xy 143.86689 62.693524) (xy 143.637 62.814845)
        (xy 143.637 64.008) (xy 143.657 64.008) (xy 143.657 64.262) (xy 143.637 64.262) (xy 143.637 65.455155)
        (xy 143.86689 65.576476) (xy 144.014099 65.531825) (xy 144.27692 65.406641) (xy 144.510269 65.232588) (xy 144.705178 65.016355)
        (xy 144.774805 64.899466) (xy 144.896525 65.081632) (xy 144.915 65.100107) (xy 144.915 65.569868) (xy 144.016865 66.468004)
        (xy 143.973551 66.503551) (xy 143.831716 66.676377) (xy 143.740812 66.846449) (xy 143.726324 66.873554) (xy 143.661423 67.087502)
        (xy 143.639509 67.31) (xy 143.645 67.365752) (xy 143.645001 71.175752) (xy 143.654784 71.275084) (xy 141.476865 73.453004)
        (xy 141.433551 73.488551) (xy 141.291716 73.661377) (xy 141.187937 73.855537) (xy 141.186324 73.858554) (xy 141.121423 74.072502)
        (xy 141.104474 74.24459) (xy 140.984637 74.065241) (xy 140.818057 73.898661) (xy 140.91418 73.869502) (xy 141.024494 73.810537)
        (xy 141.121185 73.731185) (xy 141.200537 73.634494) (xy 141.259502 73.52418) (xy 141.295812 73.404482) (xy 141.308072 73.28)
        (xy 141.308072 71.68) (xy 141.295812 71.555518) (xy 141.259502 71.43582) (xy 141.200537 71.325506) (xy 141.121185 71.228815)
        (xy 141.024494 71.149463) (xy 140.91418 71.090498) (xy 140.794482 71.054188) (xy 140.67 71.041928) (xy 139.07 71.041928)
        (xy 138.945518 71.054188) (xy 138.82582 71.090498) (xy 138.715506 71.149463) (xy 138.618815 71.228815) (xy 138.539463 71.325506)
        (xy 138.529043 71.345) (xy 138.076964 71.345) (xy 138.316038 71.217214) (xy 138.472048 70.901653) (xy 137.16 69.589605)
        (xy 135.847952 70.901653) (xy 136.003962 71.217214) (xy 136.254961 71.345) (xy 135.815132 71.345) (xy 135.12 70.649869)
        (xy 135.12 70.040561) (xy 135.194757 70.270383) (xy 135.352786 70.566038) (xy 135.668347 70.722048) (xy 136.980395 69.41)
        (xy 137.339605 69.41) (xy 138.651653 70.722048) (xy 138.967214 70.566038) (xy 139.15802 70.191255) (xy 139.272044 69.786449)
        (xy 139.304902 69.367176) (xy 139.255334 68.949549) (xy 139.125243 68.549617) (xy 138.967214 68.253962) (xy 138.651653 68.097952)
        (xy 137.339605 69.41) (xy 136.980395 69.41) (xy 135.668347 68.097952) (xy 135.352786 68.253962) (xy 135.16198 68.628745)
        (xy 135.12 68.777782) (xy 135.12 67.918347) (xy 135.847952 67.918347) (xy 137.16 69.230395) (xy 138.472048 67.918347)
        (xy 138.316038 67.602786) (xy 137.941255 67.41198) (xy 137.536449 67.297956) (xy 137.117176 67.265098) (xy 136.699549 67.314666)
        (xy 136.299617 67.444757) (xy 136.003962 67.602786) (xy 135.847952 67.918347) (xy 135.12 67.918347) (xy 135.12 63.970131)
        (xy 135.725132 63.365) (xy 136.001272 63.365) (xy 135.955506 63.389463) (xy 135.858815 63.468815) (xy 135.779463 63.565506)
        (xy 135.720498 63.67582) (xy 135.684188 63.795518) (xy 135.671928 63.92) (xy 135.671928 65.62) (xy 135.684188 65.744482)
        (xy 135.720498 65.86418) (xy 135.779463 65.974494) (xy 135.858815 66.071185) (xy 135.955506 66.150537) (xy 136.06582 66.209502)
        (xy 136.185518 66.245812) (xy 136.31 66.258072) (xy 138.01 66.258072) (xy 138.134482 66.245812) (xy 138.25418 66.209502)
        (xy 138.364494 66.150537) (xy 138.461185 66.071185) (xy 138.540537 65.974494) (xy 138.599502 65.86418) (xy 138.635812 65.744482)
        (xy 138.648072 65.62) (xy 138.648072 63.98874) (xy 139.485 63.98874) (xy 139.485 64.28126) (xy 139.542068 64.568158)
        (xy 139.65401 64.838411) (xy 139.816525 65.081632) (xy 139.96 65.225107) (xy 139.960001 65.406378) (xy 139.960001 65.990383)
        (xy 139.96 65.990393) (xy 139.960001 67.260383) (xy 139.955114 67.31) (xy 139.974615 67.507994) (xy 140.032368 67.698379)
        (xy 140.073891 67.776063) (xy 140.126154 67.87384) (xy 140.252368 68.027633) (xy 140.290901 68.059256) (xy 141.364868 69.133223)
        (xy 141.436063 69.239774) (xy 141.580226 69.383937) (xy 141.749744 69.497205) (xy 141.938102 69.575226) (xy 142.138061 69.615)
        (xy 142.341939 69.615) (xy 142.541898 69.575226) (xy 142.730256 69.497205) (xy 142.899774 69.383937) (xy 143.043937 69.239774)
        (xy 143.157205 69.070256) (xy 143.235226 68.881898) (xy 143.275 68.681939) (xy 143.275 68.478061) (xy 143.235226 68.278102)
        (xy 143.157205 68.089744) (xy 143.043937 67.920226) (xy 142.899774 67.776063) (xy 142.793223 67.704868) (xy 141.98 66.891645)
        (xy 141.98 65.225107) (xy 142.123475 65.081632) (xy 142.245195 64.899466) (xy 142.314822 65.016355) (xy 142.509731 65.232588)
        (xy 142.74308 65.406641) (xy 143.005901 65.531825) (xy 143.15311 65.576476) (xy 143.383 65.455155) (xy 143.383 64.262)
        (xy 143.363 64.262) (xy 143.363 64.008) (xy 143.383 64.008) (xy 143.383 62.814845) (xy 143.15311 62.693524)
        (xy 143.005901 62.738175) (xy 142.74308 62.863359) (xy 142.509731 63.037412) (xy 142.314822 63.253645) (xy 142.245195 63.370534)
        (xy 142.123475 63.188368) (xy 141.916632 62.981525) (xy 141.673411 62.81901) (xy 141.403158 62.707068) (xy 141.11626 62.65)
        (xy 140.82374 62.65) (xy 140.536842 62.707068) (xy 140.266589 62.81901) (xy 140.023368 62.981525) (xy 139.816525 63.188368)
        (xy 139.65401 63.431589) (xy 139.542068 63.701842) (xy 139.485 63.98874) (xy 138.648072 63.98874) (xy 138.648072 63.92)
        (xy 138.635812 63.795518) (xy 138.599502 63.67582) (xy 138.540537 63.565506) (xy 138.461185 63.468815) (xy 138.364494 63.389463)
        (xy 138.25418 63.330498) (xy 138.18162 63.308487) (xy 138.313475 63.176632) (xy 138.47599 62.933411) (xy 138.587932 62.663158)
        (xy 138.645 62.37626) (xy 138.645 62.08374) (xy 138.587932 61.796842) (xy 138.47599 61.526589) (xy 138.313475 61.283368)
        (xy 138.106632 61.076525) (xy 137.93224 60.96) (xy 138.106632 60.843475) (xy 138.125107 60.825) (xy 143.039869 60.825)
      )
    )
  )
)
